200	13868
0	1
0	2
0	3
0	4
0	5
0	6
0	7
0	8
0	10
0	13
0	14
0	15
0	16
0	18
0	20
0	21
0	25
0	26
0	27
0	29
0	30
0	32
0	33
0	35
0	36
0	37
0	38
0	42
0	44
0	45
0	46
0	47
0	48
0	49
0	50
0	51
0	53
0	54
0	56
0	57
0	58
0	59
0	60
0	62
0	63
0	65
0	66
0	67
0	68
0	71
0	72
0	73
0	74
0	76
0	77
0	78
0	79
0	80
0	81
0	83
0	87
0	88
0	89
0	90
0	93
0	95
0	96
0	97
0	98
0	101
0	102
0	103
0	104
0	105
0	106
0	107
0	109
0	110
0	112
0	113
0	114
0	115
0	117
0	118
0	119
0	120
0	124
0	125
0	126
0	127
0	129
0	130
0	133
0	134
0	136
0	137
0	138
0	139
0	140
0	142
0	143
0	145
0	146
0	148
0	150
0	151
0	152
0	154
0	156
0	157
0	158
0	159
0	160
0	161
0	162
0	163
0	164
0	165
0	168
0	169
0	170
0	171
0	172
0	173
0	175
0	177
0	178
0	179
0	180
0	181
0	182
0	184
0	185
0	187
0	188
0	193
0	194
0	195
0	196
0	198
0	199
1	2
1	3
1	5
1	7
1	10
1	12
1	13
1	14
1	15
1	16
1	17
1	19
1	20
1	21
1	23
1	24
1	26
1	27
1	28
1	30
1	31
1	32
1	34
1	35
1	36
1	37
1	39
1	41
1	42
1	43
1	44
1	45
1	46
1	48
1	49
1	50
1	52
1	53
1	54
1	55
1	57
1	58
1	59
1	60
1	62
1	63
1	65
1	67
1	69
1	70
1	73
1	74
1	75
1	77
1	78
1	80
1	81
1	83
1	84
1	85
1	86
1	87
1	88
1	89
1	90
1	91
1	92
1	93
1	95
1	96
1	97
1	98
1	99
1	100
1	101
1	102
1	105
1	106
1	107
1	108
1	109
1	110
1	113
1	115
1	117
1	119
1	120
1	121
1	122
1	123
1	125
1	126
1	127
1	128
1	129
1	130
1	131
1	132
1	133
1	134
1	135
1	137
1	138
1	139
1	140
1	141
1	142
1	143
1	145
1	146
1	147
1	148
1	149
1	150
1	152
1	153
1	155
1	157
1	158
1	160
1	162
1	163
1	164
1	165
1	166
1	167
1	168
1	169
1	170
1	171
1	172
1	173
1	174
1	175
1	179
1	180
1	181
1	186
1	187
1	188
1	189
1	190
1	191
1	192
1	193
1	194
1	195
1	196
1	198
1	199
2	3
2	7
2	8
2	9
2	10
2	11
2	12
2	13
2	14
2	16
2	17
2	18
2	19
2	20
2	21
2	22
2	24
2	25
2	26
2	27
2	29
2	30
2	31
2	35
2	37
2	38
2	39
2	41
2	42
2	44
2	46
2	47
2	48
2	49
2	50
2	51
2	52
2	53
2	54
2	55
2	56
2	57
2	58
2	60
2	62
2	64
2	65
2	66
2	67
2	68
2	69
2	70
2	71
2	72
2	74
2	75
2	76
2	77
2	78
2	79
2	80
2	83
2	84
2	85
2	86
2	87
2	88
2	89
2	91
2	92
2	93
2	94
2	96
2	98
2	100
2	102
2	104
2	105
2	107
2	109
2	111
2	112
2	114
2	115
2	117
2	118
2	119
2	120
2	121
2	122
2	123
2	124
2	126
2	128
2	129
2	131
2	132
2	140
2	142
2	143
2	144
2	145
2	146
2	147
2	148
2	149
2	152
2	153
2	154
2	155
2	157
2	158
2	159
2	160
2	162
2	163
2	164
2	165
2	166
2	167
2	168
2	169
2	170
2	171
2	172
2	173
2	175
2	176
2	177
2	183
2	186
2	187
2	189
2	190
2	191
2	192
2	193
2	196
2	197
2	198
2	199
3	4
3	6
3	7
3	8
3	9
3	10
3	15
3	16
3	19
3	21
3	22
3	25
3	26
3	27
3	28
3	30
3	32
3	33
3	34
3	36
3	37
3	38
3	40
3	41
3	43
3	44
3	48
3	49
3	50
3	51
3	52
3	53
3	54
3	56
3	57
3	58
3	60
3	61
3	62
3	63
3	65
3	66
3	67
3	68
3	69
3	70
3	71
3	72
3	73
3	74
3	77
3	78
3	79
3	80
3	83
3	84
3	87
3	89
3	90
3	92
3	94
3	95
3	97
3	98
3	99
3	100
3	102
3	103
3	104
3	105
3	108
3	109
3	110
3	111
3	112
3	113
3	114
3	115
3	117
3	118
3	119
3	120
3	122
3	123
3	124
3	125
3	127
3	129
3	131
3	132
3	133
3	134
3	135
3	136
3	137
3	138
3	141
3	142
3	143
3	144
3	146
3	147
3	148
3	149
3	151
3	152
3	153
3	154
3	155
3	157
3	159
3	160
3	163
3	164
3	165
3	169
3	170
3	172
3	174
3	180
3	181
3	182
3	183
3	186
3	187
3	189
3	190
3	191
3	192
3	196
3	198
4	6
4	8
4	9
4	11
4	13
4	14
4	16
4	18
4	19
4	20
4	21
4	22
4	23
4	24
4	26
4	27
4	28
4	29
4	30
4	32
4	33
4	34
4	35
4	36
4	37
4	38
4	39
4	40
4	42
4	43
4	44
4	45
4	46
4	48
4	50
4	52
4	54
4	55
4	56
4	57
4	58
4	59
4	60
4	62
4	63
4	64
4	67
4	68
4	69
4	70
4	71
4	75
4	76
4	77
4	78
4	80
4	82
4	83
4	84
4	85
4	86
4	87
4	89
4	90
4	91
4	92
4	93
4	95
4	96
4	98
4	103
4	105
4	107
4	109
4	113
4	114
4	115
4	116
4	117
4	118
4	120
4	121
4	122
4	123
4	124
4	127
4	128
4	129
4	130
4	131
4	132
4	133
4	134
4	137
4	139
4	140
4	142
4	143
4	144
4	145
4	146
4	147
4	150
4	151
4	153
4	154
4	155
4	156
4	159
4	161
4	162
4	164
4	165
4	167
4	168
4	172
4	173
4	177
4	178
4	179
4	180
4	181
4	182
4	183
4	184
4	185
4	186
4	187
4	189
4	190
4	193
4	195
4	196
4	197
4	199
5	6
5	8
5	10
5	11
5	14
5	15
5	16
5	17
5	18
5	19
5	22
5	23
5	24
5	25
5	28
5	31
5	32
5	33
5	34
5	35
5	36
5	43
5	45
5	47
5	49
5	51
5	52
5	53
5	55
5	58
5	59
5	62
5	63
5	64
5	66
5	69
5	73
5	74
5	77
5	78
5	79
5	80
5	82
5	83
5	84
5	85
5	86
5	87
5	88
5	89
5	90
5	92
5	93
5	94
5	95
5	96
5	97
5	98
5	100
5	101
5	102
5	103
5	105
5	106
5	107
5	108
5	109
5	110
5	111
5	113
5	114
5	115
5	116
5	117
5	118
5	119
5	120
5	121
5	122
5	124
5	125
5	126
5	127
5	130
5	131
5	132
5	133
5	134
5	135
5	136
5	137
5	139
5	140
5	143
5	144
5	145
5	147
5	148
5	150
5	151
5	152
5	153
5	154
5	156
5	157
5	158
5	160
5	161
5	163
5	164
5	165
5	167
5	169
5	171
5	172
5	173
5	174
5	177
5	178
5	179
5	182
5	183
5	184
5	185
5	187
5	189
5	190
5	191
5	192
5	193
5	194
5	195
5	196
5	198
5	199
6	7
6	9
6	10
6	11
6	12
6	13
6	14
6	15
6	17
6	18
6	19
6	21
6	23
6	24
6	25
6	26
6	28
6	29
6	30
6	32
6	34
6	35
6	37
6	40
6	41
6	42
6	44
6	45
6	46
6	49
6	50
6	51
6	53
6	54
6	55
6	57
6	58
6	59
6	61
6	62
6	63
6	64
6	65
6	67
6	70
6	71
6	73
6	74
6	75
6	78
6	79
6	80
6	81
6	82
6	83
6	85
6	86
6	87
6	88
6	91
6	92
6	96
6	98
6	100
6	101
6	102
6	103
6	104
6	108
6	110
6	112
6	115
6	116
6	117
6	118
6	119
6	120
6	121
6	124
6	126
6	127
6	128
6	129
6	130
6	131
6	132
6	133
6	135
6	136
6	137
6	138
6	139
6	140
6	148
6	149
6	150
6	153
6	154
6	155
6	157
6	158
6	159
6	160
6	161
6	164
6	165
6	166
6	168
6	169
6	171
6	172
6	173
6	174
6	176
6	177
6	178
6	180
6	182
6	183
6	185
6	186
6	188
6	190
6	192
6	193
6	195
6	197
6	198
6	199
7	8
7	9
7	11
7	13
7	14
7	15
7	16
7	18
7	20
7	22
7	23
7	24
7	25
7	26
7	28
7	29
7	30
7	32
7	33
7	34
7	35
7	37
7	38
7	39
7	40
7	41
7	44
7	45
7	46
7	47
7	48
7	49
7	50
7	52
7	53
7	54
7	55
7	56
7	58
7	61
7	62
7	63
7	64
7	65
7	66
7	67
7	68
7	69
7	70
7	71
7	73
7	74
7	77
7	78
7	82
7	83
7	84
7	85
7	86
7	89
7	90
7	92
7	93
7	94
7	95
7	96
7	97
7	98
7	99
7	100
7	103
7	104
7	105
7	106
7	109
7	112
7	113
7	116
7	117
7	118
7	119
7	120
7	121
7	122
7	123
7	124
7	125
7	127
7	128
7	129
7	131
7	134
7	135
7	136
7	137
7	138
7	139
7	140
7	142
7	143
7	144
7	145
7	146
7	148
7	149
7	150
7	152
7	154
7	155
7	156
7	157
7	158
7	159
7	160
7	161
7	162
7	163
7	164
7	165
7	168
7	170
7	171
7	173
7	174
7	175
7	176
7	177
7	180
7	181
7	183
7	184
7	185
7	186
7	187
7	189
7	190
7	191
7	193
7	194
7	195
7	196
7	198
7	199
8	10
8	11
8	12
8	14
8	15
8	16
8	17
8	18
8	20
8	23
8	24
8	25
8	27
8	28
8	29
8	30
8	31
8	33
8	35
8	36
8	39
8	40
8	41
8	42
8	43
8	44
8	45
8	47
8	48
8	49
8	50
8	51
8	52
8	53
8	54
8	55
8	56
8	57
8	59
8	60
8	62
8	63
8	64
8	65
8	66
8	69
8	70
8	71
8	73
8	74
8	77
8	78
8	79
8	80
8	81
8	84
8	89
8	90
8	91
8	92
8	93
8	94
8	96
8	97
8	98
8	99
8	100
8	103
8	104
8	105
8	106
8	107
8	109
8	110
8	111
8	112
8	114
8	117
8	120
8	121
8	123
8	124
8	125
8	126
8	127
8	128
8	129
8	130
8	131
8	132
8	133
8	134
8	140
8	141
8	142
8	143
8	144
8	146
8	148
8	149
8	150
8	151
8	152
8	153
8	159
8	160
8	161
8	162
8	163
8	164
8	165
8	167
8	168
8	170
8	171
8	175
8	176
8	177
8	180
8	181
8	182
8	183
8	184
8	185
8	186
8	187
8	188
8	189
8	190
8	191
8	192
8	193
8	194
8	195
8	196
8	197
8	198
8	199
9	10
9	13
9	14
9	16
9	17
9	18
9	19
9	20
9	21
9	23
9	24
9	25
9	26
9	27
9	28
9	29
9	32
9	33
9	34
9	36
9	37
9	38
9	39
9	40
9	42
9	44
9	45
9	47
9	52
9	54
9	55
9	56
9	59
9	60
9	62
9	64
9	65
9	66
9	68
9	70
9	71
9	72
9	73
9	74
9	78
9	79
9	81
9	82
9	83
9	84
9	85
9	86
9	87
9	88
9	89
9	90
9	91
9	92
9	94
9	95
9	96
9	97
9	98
9	99
9	101
9	102
9	103
9	106
9	107
9	109
9	110
9	111
9	117
9	118
9	119
9	120
9	121
9	122
9	124
9	125
9	126
9	127
9	128
9	129
9	130
9	131
9	133
9	134
9	136
9	137
9	138
9	139
9	141
9	143
9	144
9	146
9	147
9	149
9	150
9	151
9	152
9	153
9	154
9	155
9	156
9	158
9	159
9	160
9	161
9	162
9	163
9	167
9	168
9	169
9	174
9	175
9	176
9	179
9	180
9	181
9	182
9	183
9	184
9	185
9	186
9	188
9	189
9	190
9	191
9	192
9	193
9	195
9	196
9	197
9	199
10	13
10	15
10	16
10	17
10	18
10	19
10	20
10	21
10	23
10	24
10	25
10	27
10	29
10	31
10	33
10	34
10	35
10	36
10	37
10	38
10	40
10	44
10	45
10	46
10	47
10	49
10	50
10	54
10	55
10	56
10	57
10	59
10	61
10	62
10	63
10	66
10	67
10	68
10	69
10	71
10	73
10	76
10	77
10	78
10	80
10	81
10	82
10	83
10	84
10	89
10	90
10	91
10	92
10	93
10	94
10	95
10	96
10	98
10	99
10	101
10	102
10	104
10	105
10	107
10	108
10	109
10	110
10	111
10	114
10	115
10	116
10	117
10	118
10	119
10	120
10	121
10	122
10	123
10	125
10	126
10	127
10	128
10	130
10	135
10	136
10	137
10	140
10	141
10	142
10	144
10	145
10	146
10	149
10	150
10	152
10	153
10	154
10	155
10	156
10	157
10	159
10	160
10	161
10	162
10	163
10	164
10	165
10	166
10	168
10	169
10	170
10	171
10	172
10	174
10	175
10	176
10	177
10	178
10	179
10	180
10	181
10	183
10	184
10	185
10	187
10	191
10	192
10	193
10	194
10	195
10	197
10	198
11	13
11	15
11	19
11	20
11	22
11	23
11	24
11	25
11	26
11	28
11	29
11	30
11	31
11	34
11	35
11	36
11	37
11	39
11	40
11	41
11	43
11	44
11	46
11	48
11	49
11	51
11	52
11	53
11	54
11	55
11	56
11	57
11	58
11	59
11	61
11	62
11	64
11	68
11	69
11	74
11	76
11	77
11	78
11	79
11	81
11	82
11	84
11	85
11	86
11	88
11	90
11	92
11	94
11	96
11	97
11	99
11	100
11	101
11	104
11	105
11	108
11	109
11	110
11	111
11	113
11	114
11	115
11	117
11	118
11	119
11	120
11	121
11	123
11	124
11	125
11	126
11	128
11	129
11	130
11	131
11	133
11	134
11	135
11	136
11	138
11	140
11	141
11	142
11	143
11	144
11	145
11	146
11	147
11	148
11	149
11	152
11	153
11	154
11	156
11	157
11	159
11	160
11	161
11	162
11	163
11	164
11	165
11	167
11	168
11	170
11	171
11	172
11	173
11	174
11	176
11	177
11	178
11	179
11	180
11	181
11	185
11	186
11	187
11	189
11	190
11	191
11	192
11	196
11	197
11	198
11	199
12	13
12	14
12	15
12	16
12	18
12	19
12	20
12	21
12	23
12	24
12	26
12	30
12	32
12	33
12	34
12	38
12	41
12	42
12	43
12	44
12	47
12	48
12	52
12	53
12	55
12	56
12	57
12	58
12	59
12	63
12	64
12	65
12	66
12	67
12	70
12	71
12	72
12	73
12	76
12	78
12	80
12	82
12	83
12	84
12	85
12	87
12	88
12	89
12	90
12	91
12	92
12	93
12	95
12	96
12	97
12	99
12	100
12	102
12	103
12	104
12	105
12	106
12	107
12	108
12	109
12	110
12	112
12	114
12	116
12	117
12	121
12	122
12	123
12	124
12	125
12	126
12	127
12	128
12	129
12	131
12	132
12	133
12	135
12	137
12	139
12	140
12	141
12	142
12	143
12	146
12	148
12	149
12	151
12	152
12	153
12	154
12	155
12	156
12	157
12	158
12	160
12	162
12	164
12	165
12	166
12	167
12	168
12	169
12	170
12	172
12	174
12	177
12	179
12	182
12	185
12	186
12	187
12	188
12	189
12	190
12	191
12	192
12	194
12	196
12	197
12	198
12	199
13	14
13	16
13	17
13	20
13	21
13	22
13	23
13	25
13	26
13	27
13	28
13	29
13	30
13	31
13	32
13	33
13	34
13	36
13	37
13	38
13	39
13	40
13	43
13	44
13	45
13	50
13	51
13	52
13	53
13	55
13	56
13	57
13	58
13	59
13	60
13	62
13	64
13	66
13	67
13	68
13	69
13	70
13	71
13	72
13	73
13	74
13	75
13	76
13	77
13	78
13	79
13	81
13	83
13	84
13	86
13	87
13	91
13	93
13	94
13	96
13	98
13	99
13	100
13	101
13	103
13	107
13	109
13	113
13	114
13	115
13	116
13	117
13	119
13	120
13	121
13	123
13	124
13	126
13	127
13	128
13	129
13	130
13	131
13	135
13	136
13	137
13	139
13	140
13	142
13	143
13	144
13	145
13	146
13	149
13	150
13	151
13	152
13	153
13	154
13	157
13	158
13	159
13	161
13	163
13	164
13	165
13	166
13	167
13	168
13	169
13	170
13	171
13	174
13	175
13	176
13	178
13	179
13	181
13	183
13	184
13	185
13	186
13	187
13	188
13	189
13	192
13	194
13	195
13	196
13	197
13	198
14	16
14	17
14	19
14	20
14	22
14	24
14	26
14	29
14	30
14	31
14	32
14	34
14	35
14	37
14	38
14	40
14	41
14	42
14	43
14	44
14	45
14	46
14	47
14	50
14	54
14	55
14	57
14	59
14	60
14	61
14	64
14	65
14	66
14	68
14	69
14	70
14	71
14	73
14	74
14	75
14	76
14	77
14	78
14	79
14	80
14	81
14	83
14	84
14	85
14	86
14	87
14	89
14	91
14	92
14	93
14	94
14	95
14	97
14	98
14	99
14	100
14	102
14	103
14	105
14	106
14	107
14	108
14	110
14	111
14	112
14	113
14	114
14	116
14	117
14	119
14	120
14	121
14	122
14	124
14	125
14	126
14	127
14	128
14	129
14	130
14	132
14	133
14	134
14	135
14	136
14	137
14	138
14	139
14	140
14	141
14	144
14	146
14	148
14	149
14	150
14	152
14	153
14	154
14	155
14	157
14	158
14	159
14	162
14	163
14	164
14	165
14	166
14	167
14	169
14	170
14	171
14	172
14	173
14	175
14	176
14	177
14	178
14	181
14	183
14	184
14	185
14	186
14	188
14	189
14	190
14	191
14	193
14	194
14	195
14	196
14	197
14	198
14	199
15	17
15	18
15	20
15	21
15	22
15	23
15	24
15	25
15	26
15	27
15	28
15	30
15	32
15	33
15	35
15	36
15	37
15	38
15	40
15	41
15	43
15	45
15	48
15	49
15	50
15	51
15	52
15	53
15	54
15	56
15	57
15	58
15	60
15	62
15	65
15	66
15	67
15	68
15	70
15	72
15	73
15	74
15	75
15	76
15	77
15	78
15	80
15	82
15	83
15	85
15	86
15	88
15	89
15	92
15	93
15	95
15	97
15	98
15	99
15	100
15	101
15	102
15	103
15	104
15	105
15	106
15	107
15	109
15	110
15	111
15	113
15	114
15	119
15	120
15	121
15	122
15	126
15	127
15	128
15	131
15	132
15	133
15	134
15	135
15	136
15	137
15	138
15	139
15	140
15	141
15	142
15	143
15	146
15	148
15	151
15	152
15	153
15	154
15	155
15	157
15	159
15	160
15	162
15	163
15	165
15	166
15	167
15	168
15	170
15	172
15	174
15	175
15	176
15	177
15	179
15	182
15	183
15	185
15	186
15	189
15	191
15	192
15	193
15	194
15	197
15	198
15	199
16	17
16	18
16	19
16	20
16	21
16	22
16	25
16	26
16	27
16	28
16	29
16	30
16	32
16	34
16	35
16	37
16	38
16	39
16	40
16	42
16	43
16	45
16	46
16	47
16	48
16	49
16	50
16	51
16	52
16	53
16	55
16	56
16	57
16	59
16	60
16	61
16	64
16	65
16	66
16	68
16	69
16	71
16	72
16	73
16	74
16	75
16	76
16	77
16	78
16	80
16	81
16	82
16	84
16	86
16	88
16	89
16	91
16	92
16	94
16	95
16	96
16	97
16	98
16	99
16	100
16	101
16	102
16	104
16	105
16	106
16	107
16	108
16	109
16	111
16	112
16	114
16	115
16	117
16	118
16	119
16	121
16	122
16	123
16	124
16	125
16	126
16	127
16	128
16	129
16	131
16	133
16	134
16	135
16	137
16	138
16	140
16	141
16	142
16	144
16	145
16	146
16	147
16	148
16	150
16	152
16	153
16	155
16	156
16	157
16	159
16	162
16	163
16	164
16	167
16	168
16	169
16	170
16	171
16	172
16	173
16	174
16	175
16	180
16	181
16	182
16	185
16	186
16	189
16	191
16	192
16	193
16	194
16	196
16	198
17	19
17	20
17	21
17	22
17	23
17	25
17	26
17	27
17	28
17	33
17	34
17	35
17	36
17	37
17	39
17	40
17	41
17	43
17	45
17	46
17	48
17	49
17	50
17	51
17	53
17	54
17	57
17	58
17	59
17	60
17	61
17	63
17	65
17	66
17	67
17	68
17	69
17	71
17	72
17	75
17	76
17	77
17	78
17	79
17	81
17	82
17	83
17	84
17	85
17	86
17	88
17	90
17	91
17	92
17	93
17	94
17	95
17	96
17	97
17	98
17	100
17	101
17	103
17	104
17	106
17	107
17	112
17	113
17	114
17	115
17	116
17	118
17	119
17	121
17	122
17	124
17	129
17	130
17	131
17	133
17	134
17	135
17	136
17	137
17	139
17	140
17	142
17	143
17	145
17	148
17	150
17	151
17	152
17	153
17	154
17	155
17	156
17	158
17	160
17	161
17	162
17	163
17	165
17	166
17	167
17	168
17	169
17	170
17	171
17	172
17	173
17	174
17	176
17	177
17	179
17	180
17	181
17	183
17	184
17	186
17	187
17	188
17	190
17	191
17	194
17	195
17	197
17	198
17	199
18	19
18	21
18	22
18	23
18	24
18	25
18	26
18	27
18	28
18	29
18	31
18	33
18	34
18	35
18	38
18	39
18	40
18	41
18	42
18	43
18	44
18	46
18	47
18	48
18	49
18	50
18	51
18	52
18	53
18	54
18	57
18	58
18	59
18	61
18	62
18	63
18	64
18	66
18	67
18	69
18	71
18	72
18	73
18	74
18	75
18	76
18	77
18	78
18	79
18	80
18	81
18	82
18	83
18	84
18	85
18	86
18	87
18	89
18	90
18	91
18	92
18	94
18	97
18	98
18	99
18	100
18	102
18	103
18	104
18	107
18	108
18	113
18	115
18	116
18	118
18	119
18	120
18	122
18	123
18	126
18	128
18	129
18	130
18	132
18	134
18	135
18	138
18	141
18	143
18	144
18	146
18	149
18	152
18	153
18	154
18	155
18	156
18	158
18	159
18	160
18	161
18	162
18	163
18	164
18	165
18	167
18	169
18	170
18	174
18	175
18	176
18	178
18	179
18	180
18	181
18	182
18	184
18	186
18	188
18	189
18	190
18	192
18	193
18	194
18	195
18	196
18	197
18	199
19	20
19	23
19	25
19	26
19	27
19	28
19	31
19	33
19	34
19	35
19	36
19	37
19	38
19	39
19	40
19	41
19	42
19	43
19	44
19	47
19	49
19	50
19	51
19	52
19	53
19	55
19	56
19	57
19	58
19	59
19	60
19	61
19	64
19	65
19	66
19	67
19	69
19	70
19	71
19	72
19	73
19	74
19	75
19	76
19	77
19	78
19	79
19	80
19	84
19	85
19	86
19	90
19	91
19	93
19	95
19	96
19	98
19	99
19	100
19	101
19	103
19	104
19	105
19	106
19	107
19	108
19	110
19	111
19	114
19	116
19	119
19	120
19	121
19	122
19	123
19	124
19	125
19	126
19	128
19	129
19	130
19	131
19	133
19	134
19	136
19	138
19	139
19	141
19	143
19	144
19	145
19	146
19	147
19	148
19	149
19	150
19	151
19	152
19	153
19	154
19	156
19	157
19	161
19	162
19	163
19	164
19	166
19	167
19	169
19	170
19	172
19	173
19	174
19	175
19	178
19	180
19	181
19	182
19	183
19	184
19	185
19	186
19	188
19	189
19	192
19	193
19	194
19	195
19	196
19	198
19	199
20	22
20	24
20	26
20	28
20	29
20	30
20	31
20	32
20	33
20	36
20	37
20	38
20	39
20	40
20	41
20	43
20	44
20	46
20	47
20	48
20	49
20	51
20	53
20	55
20	56
20	58
20	60
20	61
20	62
20	63
20	64
20	65
20	66
20	68
20	69
20	71
20	73
20	75
20	76
20	77
20	80
20	83
20	85
20	87
20	88
20	91
20	92
20	93
20	94
20	96
20	97
20	98
20	99
20	100
20	101
20	102
20	106
20	107
20	108
20	109
20	110
20	111
20	112
20	113
20	115
20	117
20	118
20	119
20	120
20	121
20	124
20	126
20	127
20	128
20	129
20	130
20	131
20	132
20	133
20	134
20	135
20	136
20	138
20	139
20	140
20	141
20	142
20	143
20	144
20	145
20	147
20	148
20	150
20	151
20	152
20	153
20	154
20	155
20	156
20	158
20	162
20	163
20	164
20	165
20	166
20	167
20	168
20	169
20	170
20	171
20	174
20	175
20	179
20	181
20	184
20	185
20	186
20	189
20	190
20	192
20	194
20	196
20	199
21	22
21	23
21	24
21	25
21	26
21	27
21	29
21	30
21	31
21	32
21	33
21	35
21	36
21	37
21	38
21	39
21	40
21	41
21	42
21	43
21	44
21	47
21	48
21	50
21	51
21	52
21	53
21	54
21	55
21	58
21	59
21	61
21	62
21	63
21	64
21	66
21	67
21	68
21	71
21	72
21	73
21	74
21	75
21	76
21	77
21	79
21	80
21	82
21	83
21	84
21	85
21	86
21	88
21	89
21	90
21	91
21	92
21	93
21	94
21	95
21	96
21	99
21	100
21	101
21	102
21	105
21	106
21	109
21	110
21	111
21	112
21	113
21	114
21	115
21	116
21	117
21	118
21	119
21	120
21	122
21	124
21	125
21	126
21	130
21	131
21	132
21	133
21	134
21	135
21	138
21	140
21	143
21	144
21	145
21	146
21	147
21	148
21	151
21	152
21	153
21	154
21	156
21	157
21	158
21	159
21	160
21	162
21	163
21	164
21	166
21	167
21	172
21	173
21	177
21	178
21	180
21	182
21	185
21	186
21	187
21	189
21	190
21	192
21	194
21	195
21	196
21	198
21	199
22	23
22	24
22	25
22	26
22	27
22	28
22	30
22	31
22	32
22	33
22	34
22	37
22	39
22	40
22	42
22	43
22	44
22	46
22	48
22	50
22	51
22	52
22	55
22	56
22	57
22	58
22	59
22	60
22	61
22	62
22	63
22	65
22	66
22	67
22	68
22	71
22	73
22	77
22	79
22	80
22	81
22	84
22	86
22	87
22	88
22	89
22	90
22	91
22	92
22	93
22	94
22	95
22	96
22	97
22	98
22	99
22	100
22	101
22	102
22	103
22	104
22	105
22	106
22	107
22	108
22	109
22	110
22	111
22	112
22	113
22	114
22	118
22	119
22	120
22	122
22	123
22	124
22	125
22	126
22	127
22	128
22	129
22	131
22	133
22	135
22	136
22	137
22	138
22	139
22	140
22	141
22	144
22	145
22	146
22	147
22	148
22	150
22	151
22	152
22	153
22	154
22	156
22	158
22	159
22	160
22	161
22	163
22	164
22	165
22	171
22	172
22	173
22	174
22	175
22	180
22	181
22	182
22	183
22	186
22	189
22	190
22	191
22	194
22	195
22	196
22	197
22	198
22	199
23	24
23	25
23	26
23	27
23	29
23	31
23	32
23	34
23	36
23	37
23	38
23	39
23	41
23	42
23	44
23	45
23	47
23	48
23	49
23	51
23	52
23	55
23	57
23	59
23	62
23	63
23	66
23	69
23	72
23	76
23	77
23	78
23	79
23	80
23	81
23	82
23	83
23	84
23	85
23	86
23	87
23	88
23	89
23	91
23	93
23	95
23	98
23	101
23	103
23	104
23	105
23	106
23	107
23	108
23	109
23	110
23	111
23	113
23	114
23	116
23	119
23	121
23	125
23	126
23	127
23	128
23	130
23	131
23	132
23	133
23	134
23	135
23	136
23	138
23	140
23	143
23	145
23	146
23	147
23	148
23	149
23	151
23	154
23	155
23	156
23	157
23	158
23	159
23	160
23	161
23	162
23	163
23	164
23	166
23	167
23	169
23	171
23	172
23	175
23	176
23	177
23	180
23	182
23	183
23	184
23	185
23	188
23	190
23	192
23	193
23	194
23	195
23	196
23	197
23	198
24	25
24	26
24	27
24	30
24	31
24	32
24	33
24	34
24	35
24	36
24	38
24	39
24	40
24	41
24	42
24	43
24	45
24	49
24	50
24	52
24	53
24	54
24	55
24	56
24	57
24	59
24	60
24	62
24	63
24	65
24	66
24	67
24	68
24	69
24	72
24	73
24	74
24	75
24	76
24	78
24	79
24	83
24	84
24	87
24	88
24	89
24	91
24	92
24	93
24	94
24	95
24	96
24	100
24	102
24	103
24	104
24	106
24	107
24	108
24	111
24	113
24	115
24	116
24	120
24	121
24	122
24	123
24	124
24	126
24	128
24	129
24	131
24	132
24	133
24	134
24	135
24	136
24	138
24	140
24	142
24	143
24	144
24	145
24	146
24	147
24	148
24	149
24	151
24	152
24	153
24	154
24	155
24	157
24	158
24	159
24	162
24	163
24	164
24	165
24	166
24	168
24	170
24	172
24	174
24	177
24	179
24	182
24	183
24	185
24	186
24	188
24	189
24	190
24	191
24	192
24	193
24	194
24	196
24	197
24	198
25	27
25	28
25	29
25	32
25	34
25	35
25	37
25	38
25	39
25	41
25	43
25	45
25	47
25	48
25	49
25	51
25	52
25	53
25	54
25	57
25	59
25	60
25	62
25	66
25	67
25	68
25	69
25	70
25	71
25	72
25	74
25	75
25	76
25	77
25	78
25	79
25	80
25	81
25	83
25	84
25	85
25	86
25	87
25	88
25	89
25	92
25	93
25	96
25	97
25	98
25	99
25	100
25	102
25	106
25	108
25	109
25	110
25	111
25	113
25	114
25	115
25	116
25	117
25	118
25	121
25	123
25	124
25	125
25	126
25	127
25	128
25	129
25	130
25	132
25	133
25	135
25	136
25	138
25	140
25	142
25	143
25	144
25	145
25	147
25	148
25	149
25	150
25	151
25	152
25	153
25	154
25	156
25	157
25	158
25	159
25	161
25	162
25	163
25	165
25	166
25	167
25	170
25	171
25	172
25	173
25	174
25	176
25	178
25	179
25	180
25	182
25	183
25	186
25	187
25	188
25	189
25	191
25	194
25	195
25	196
25	197
25	198
26	27
26	28
26	29
26	30
26	33
26	35
26	37
26	38
26	39
26	41
26	42
26	44
26	45
26	46
26	47
26	48
26	49
26	50
26	51
26	53
26	54
26	55
26	56
26	57
26	58
26	59
26	60
26	62
26	64
26	65
26	66
26	67
26	68
26	70
26	71
26	73
26	74
26	75
26	76
26	77
26	80
26	81
26	82
26	83
26	84
26	85
26	87
26	88
26	91
26	93
26	95
26	96
26	97
26	98
26	101
26	102
26	104
26	105
26	107
26	110
26	111
26	112
26	113
26	114
26	115
26	116
26	119
26	122
26	123
26	124
26	125
26	127
26	128
26	130
26	131
26	132
26	133
26	138
26	139
26	142
26	144
26	145
26	146
26	148
26	149
26	150
26	152
26	153
26	154
26	155
26	157
26	158
26	160
26	162
26	164
26	165
26	166
26	168
26	169
26	170
26	173
26	175
26	177
26	178
26	180
26	183
26	184
26	185
26	187
26	189
26	190
26	191
26	192
26	193
26	195
26	196
26	197
26	198
26	199
27	28
27	30
27	31
27	32
27	34
27	35
27	37
27	39
27	40
27	43
27	44
27	45
27	46
27	48
27	50
27	51
27	53
27	55
27	56
27	57
27	58
27	59
27	61
27	62
27	63
27	64
27	65
27	66
27	67
27	68
27	69
27	71
27	74
27	76
27	79
27	80
27	81
27	82
27	83
27	84
27	86
27	87
27	90
27	92
27	93
27	95
27	99
27	102
27	104
27	105
27	107
27	108
27	109
27	110
27	111
27	112
27	113
27	116
27	117
27	118
27	119
27	120
27	122
27	123
27	124
27	125
27	126
27	129
27	132
27	133
27	137
27	139
27	140
27	141
27	144
27	146
27	147
27	148
27	150
27	152
27	153
27	156
27	157
27	158
27	159
27	160
27	161
27	162
27	164
27	166
27	167
27	168
27	169
27	170
27	171
27	173
27	174
27	176
27	177
27	178
27	179
27	181
27	182
27	183
27	185
27	186
27	187
27	188
27	189
27	190
27	192
27	193
27	196
27	197
28	29
28	30
28	31
28	32
28	33
28	35
28	36
28	37
28	38
28	39
28	42
28	43
28	44
28	45
28	52
28	53
28	54
28	55
28	58
28	59
28	60
28	61
28	62
28	63
28	65
28	66
28	67
28	68
28	69
28	70
28	72
28	74
28	76
28	77
28	78
28	79
28	80
28	81
28	83
28	85
28	87
28	88
28	89
28	90
28	91
28	92
28	93
28	94
28	95
28	96
28	99
28	101
28	102
28	104
28	107
28	109
28	110
28	111
28	112
28	113
28	115
28	117
28	118
28	119
28	121
28	122
28	123
28	125
28	127
28	128
28	130
28	131
28	132
28	134
28	135
28	136
28	138
28	139
28	140
28	142
28	144
28	145
28	146
28	147
28	149
28	150
28	152
28	153
28	154
28	156
28	157
28	158
28	159
28	161
28	164
28	166
28	169
28	170
28	172
28	174
28	176
28	179
28	180
28	183
28	184
28	185
28	186
28	187
28	188
28	189
28	190
28	195
28	198
28	199
29	30
29	31
29	32
29	34
29	36
29	37
29	38
29	39
29	42
29	44
29	47
29	48
29	49
29	51
29	52
29	53
29	54
29	57
29	58
29	60
29	62
29	63
29	65
29	66
29	67
29	68
29	74
29	75
29	77
29	78
29	79
29	80
29	81
29	83
29	84
29	85
29	86
29	89
29	90
29	94
29	96
29	97
29	98
29	99
29	100
29	102
29	105
29	106
29	107
29	109
29	110
29	111
29	112
29	113
29	114
29	115
29	116
29	117
29	118
29	119
29	120
29	122
29	123
29	124
29	125
29	126
29	129
29	130
29	132
29	133
29	135
29	140
29	141
29	142
29	144
29	145
29	146
29	147
29	148
29	149
29	152
29	153
29	154
29	156
29	157
29	158
29	159
29	160
29	162
29	164
29	165
29	166
29	171
29	172
29	173
29	174
29	177
29	178
29	180
29	183
29	185
29	186
29	187
29	188
29	189
29	191
29	193
29	195
29	196
29	198
29	199
30	31
30	35
30	37
30	39
30	40
30	43
30	45
30	46
30	47
30	50
30	53
30	56
30	58
30	59
30	60
30	61
30	62
30	64
30	67
30	68
30	70
30	72
30	73
30	74
30	75
30	76
30	78
30	79
30	81
30	82
30	83
30	85
30	86
30	87
30	88
30	89
30	90
30	91
30	94
30	96
30	97
30	99
30	101
30	102
30	103
30	104
30	105
30	108
30	109
30	110
30	111
30	112
30	114
30	115
30	116
30	118
30	120
30	121
30	122
30	125
30	127
30	128
30	129
30	130
30	131
30	133
30	134
30	135
30	136
30	137
30	138
30	139
30	140
30	141
30	142
30	144
30	147
30	148
30	149
30	150
30	152
30	153
30	155
30	156
30	157
30	159
30	160
30	161
30	162
30	163
30	165
30	166
30	167
30	168
30	169
30	170
30	171
30	172
30	173
30	177
30	178
30	179
30	182
30	183
30	184
30	185
30	186
30	187
30	188
30	189
30	190
30	191
30	192
30	193
30	195
30	196
30	198
30	199
31	32
31	33
31	34
31	35
31	36
31	37
31	38
31	39
31	40
31	42
31	43
31	44
31	46
31	47
31	48
31	50
31	51
31	53
31	54
31	55
31	56
31	59
31	61
31	64
31	65
31	66
31	67
31	72
31	73
31	74
31	75
31	76
31	77
31	78
31	79
31	80
31	83
31	84
31	85
31	86
31	87
31	88
31	89
31	90
31	92
31	93
31	94
31	95
31	100
31	101
31	102
31	103
31	106
31	107
31	108
31	110
31	111
31	112
31	113
31	114
31	116
31	117
31	118
31	120
31	121
31	122
31	124
31	125
31	126
31	127
31	128
31	130
31	132
31	134
31	135
31	136
31	137
31	138
31	140
31	141
31	142
31	146
31	147
31	149
31	150
31	151
31	152
31	154
31	155
31	156
31	157
31	158
31	159
31	160
31	162
31	163
31	165
31	167
31	168
31	169
31	170
31	173
31	174
31	175
31	176
31	177
31	178
31	180
31	181
31	182
31	184
31	185
31	187
31	188
31	189
31	191
31	192
31	195
31	196
31	198
31	199
32	33
32	35
32	37
32	39
32	40
32	43
32	44
32	45
32	47
32	48
32	50
32	51
32	52
32	54
32	56
32	58
32	59
32	60
32	61
32	62
32	63
32	64
32	65
32	67
32	68
32	71
32	73
32	75
32	77
32	78
32	79
32	80
32	81
32	84
32	86
32	87
32	89
32	90
32	93
32	94
32	95
32	96
32	97
32	99
32	100
32	102
32	103
32	104
32	105
32	106
32	107
32	109
32	111
32	114
32	118
32	120
32	121
32	122
32	124
32	125
32	126
32	127
32	129
32	130
32	131
32	133
32	134
32	135
32	136
32	137
32	138
32	139
32	140
32	141
32	142
32	143
32	144
32	146
32	147
32	148
32	149
32	153
32	155
32	157
32	159
32	160
32	162
32	164
32	166
32	167
32	169
32	171
32	172
32	173
32	174
32	175
32	176
32	177
32	180
32	183
32	184
32	186
32	187
32	189
32	191
32	192
32	193
32	195
32	196
32	197
32	199
33	34
33	36
33	38
33	39
33	40
33	41
33	43
33	44
33	47
33	49
33	50
33	51
33	52
33	53
33	54
33	55
33	56
33	57
33	58
33	59
33	60
33	61
33	62
33	63
33	66
33	67
33	70
33	71
33	72
33	73
33	74
33	75
33	76
33	77
33	78
33	79
33	80
33	83
33	84
33	87
33	88
33	90
33	92
33	94
33	95
33	99
33	100
33	101
33	103
33	104
33	105
33	106
33	108
33	109
33	110
33	112
33	115
33	117
33	118
33	120
33	121
33	123
33	124
33	125
33	126
33	127
33	129
33	131
33	132
33	134
33	135
33	137
33	138
33	140
33	141
33	144
33	145
33	146
33	148
33	149
33	152
33	153
33	154
33	155
33	157
33	158
33	159
33	161
33	162
33	163
33	165
33	167
33	168
33	170
33	171
33	172
33	173
33	174
33	175
33	178
33	179
33	180
33	181
33	182
33	183
33	185
33	186
33	187
33	189
33	190
33	191
33	192
33	193
33	194
33	195
33	196
33	199
34	36
34	38
34	39
34	40
34	41
34	42
34	43
34	45
34	46
34	47
34	49
34	50
34	51
34	52
34	54
34	56
34	57
34	58
34	59
34	61
34	62
34	63
34	64
34	66
34	67
34	69
34	71
34	72
34	73
34	74
34	78
34	81
34	82
34	83
34	84
34	85
34	86
34	87
34	89
34	90
34	91
34	94
34	95
34	97
34	98
34	99
34	100
34	101
34	102
34	103
34	104
34	106
34	107
34	108
34	109
34	110
34	111
34	113
34	115
34	116
34	117
34	118
34	119
34	120
34	122
34	123
34	124
34	125
34	126
34	127
34	128
34	129
34	130
34	131
34	132
34	133
34	134
34	137
34	138
34	139
34	140
34	144
34	148
34	149
34	152
34	153
34	154
34	156
34	157
34	159
34	160
34	161
34	163
34	165
34	166
34	168
34	169
34	170
34	171
34	173
34	175
34	178
34	179
34	180
34	183
34	184
34	185
34	186
34	187
34	188
34	189
34	190
34	191
34	195
34	196
34	197
34	198
34	199
35	36
35	37
35	38
35	39
35	40
35	41
35	42
35	43
35	44
35	45
35	46
35	47
35	48
35	49
35	51
35	52
35	53
35	54
35	56
35	58
35	61
35	62
35	63
35	64
35	65
35	66
35	68
35	70
35	71
35	72
35	73
35	75
35	76
35	77
35	78
35	80
35	81
35	83
35	84
35	85
35	86
35	87
35	88
35	89
35	90
35	93
35	94
35	95
35	96
35	97
35	98
35	99
35	100
35	101
35	102
35	104
35	105
35	106
35	110
35	111
35	113
35	117
35	118
35	119
35	121
35	122
35	123
35	125
35	128
35	129
35	130
35	131
35	132
35	136
35	137
35	138
35	139
35	140
35	141
35	142
35	143
35	144
35	145
35	147
35	148
35	150
35	151
35	152
35	153
35	154
35	156
35	157
35	159
35	160
35	162
35	163
35	164
35	165
35	168
35	169
35	170
35	172
35	176
35	178
35	180
35	181
35	182
35	185
35	187
35	188
35	189
35	190
35	191
35	192
35	193
35	195
35	196
35	197
35	198
35	199
36	37
36	38
36	40
36	43
36	44
36	45
36	46
36	47
36	48
36	49
36	50
36	52
36	54
36	55
36	56
36	57
36	60
36	61
36	62
36	65
36	67
36	68
36	71
36	74
36	75
36	76
36	78
36	79
36	81
36	82
36	83
36	84
36	86
36	87
36	88
36	89
36	90
36	94
36	96
36	97
36	98
36	99
36	100
36	103
36	106
36	109
36	110
36	112
36	113
36	115
36	116
36	117
36	118
36	119
36	121
36	122
36	124
36	125
36	127
36	130
36	133
36	134
36	135
36	136
36	137
36	138
36	139
36	141
36	146
36	147
36	148
36	149
36	150
36	151
36	153
36	154
36	155
36	157
36	158
36	159
36	161
36	162
36	164
36	165
36	166
36	168
36	170
36	172
36	173
36	175
36	177
36	178
36	179
36	181
36	182
36	183
36	187
36	189
36	190
36	193
36	194
36	195
36	196
36	198
36	199
37	38
37	39
37	40
37	42
37	43
37	45
37	46
37	47
37	49
37	50
37	51
37	53
37	54
37	57
37	58
37	59
37	60
37	61
37	62
37	63
37	64
37	66
37	68
37	70
37	71
37	73
37	74
37	77
37	79
37	80
37	81
37	82
37	83
37	85
37	87
37	89
37	92
37	93
37	94
37	95
37	96
37	99
37	100
37	101
37	103
37	104
37	105
37	106
37	107
37	108
37	112
37	113
37	116
37	118
37	119
37	120
37	121
37	122
37	123
37	125
37	126
37	127
37	128
37	129
37	132
37	134
37	135
37	136
37	137
37	140
37	142
37	143
37	145
37	146
37	147
37	148
37	149
37	151
37	152
37	154
37	155
37	156
37	159
37	160
37	162
37	163
37	164
37	168
37	170
37	171
37	172
37	173
37	175
37	177
37	179
37	180
37	181
37	183
37	184
37	186
37	189
37	190
37	191
37	192
37	193
37	194
37	195
37	197
37	198
38	39
38	40
38	41
38	43
38	44
38	45
38	46
38	47
38	49
38	51
38	52
38	54
38	55
38	56
38	57
38	60
38	62
38	64
38	66
38	68
38	69
38	70
38	71
38	73
38	74
38	75
38	76
38	78
38	79
38	80
38	81
38	82
38	83
38	84
38	89
38	91
38	92
38	94
38	95
38	96
38	98
38	100
38	101
38	102
38	103
38	104
38	106
38	107
38	108
38	109
38	110
38	112
38	113
38	114
38	115
38	117
38	118
38	119
38	122
38	123
38	125
38	126
38	127
38	129
38	130
38	131
38	133
38	134
38	135
38	136
38	137
38	138
38	139
38	140
38	141
38	142
38	143
38	144
38	145
38	146
38	147
38	148
38	150
38	151
38	152
38	153
38	155
38	156
38	157
38	159
38	160
38	161
38	162
38	164
38	166
38	167
38	168
38	169
38	170
38	172
38	174
38	175
38	178
38	179
38	180
38	181
38	182
38	183
38	184
38	185
38	186
38	188
38	189
38	192
38	193
38	195
38	198
38	199
39	40
39	43
39	46
39	49
39	51
39	53
39	54
39	55
39	56
39	57
39	58
39	59
39	60
39	61
39	63
39	64
39	65
39	66
39	67
39	68
39	69
39	70
39	72
39	73
39	76
39	78
39	80
39	81
39	82
39	83
39	85
39	87
39	88
39	89
39	91
39	92
39	94
39	95
39	96
39	98
39	100
39	101
39	102
39	103
39	105
39	106
39	108
39	109
39	112
39	114
39	115
39	116
39	117
39	120
39	121
39	122
39	123
39	124
39	127
39	129
39	130
39	133
39	134
39	135
39	137
39	138
39	139
39	141
39	142
39	143
39	145
39	146
39	147
39	149
39	150
39	151
39	152
39	153
39	156
39	157
39	158
39	159
39	162
39	164
39	165
39	166
39	168
39	169
39	171
39	173
39	174
39	175
39	176
39	177
39	179
39	180
39	181
39	182
39	184
39	185
39	188
39	189
39	191
39	193
39	196
39	198
39	199
40	41
40	42
40	43
40	44
40	45
40	46
40	48
40	52
40	54
40	55
40	56
40	59
40	60
40	62
40	63
40	65
40	68
40	70
40	72
40	73
40	74
40	76
40	77
40	78
40	79
40	80
40	81
40	83
40	84
40	85
40	86
40	88
40	89
40	90
40	91
40	92
40	93
40	94
40	95
40	96
40	97
40	101
40	103
40	104
40	106
40	108
40	109
40	112
40	114
40	115
40	118
40	119
40	120
40	121
40	122
40	123
40	124
40	125
40	126
40	127
40	128
40	130
40	131
40	132
40	135
40	136
40	138
40	139
40	140
40	141
40	143
40	145
40	146
40	149
40	150
40	152
40	153
40	155
40	157
40	158
40	159
40	160
40	161
40	162
40	163
40	165
40	167
40	168
40	169
40	171
40	172
40	173
40	174
40	175
40	176
40	177
40	178
40	179
40	180
40	181
40	182
40	183
40	185
40	186
40	188
40	189
40	190
40	191
40	192
40	195
41	43
41	44
41	45
41	46
41	48
41	50
41	52
41	53
41	54
41	55
41	56
41	58
41	59
41	63
41	64
41	65
41	67
41	68
41	70
41	71
41	75
41	76
41	78
41	79
41	81
41	82
41	83
41	85
41	86
41	87
41	88
41	89
41	90
41	91
41	92
41	94
41	95
41	96
41	97
41	98
41	99
41	100
41	101
41	102
41	103
41	104
41	105
41	106
41	107
41	108
41	109
41	110
41	113
41	115
41	116
41	117
41	118
41	120
41	121
41	122
41	123
41	124
41	126
41	127
41	128
41	129
41	130
41	131
41	135
41	136
41	137
41	138
41	139
41	142
41	144
41	145
41	146
41	147
41	149
41	150
41	151
41	156
41	157
41	158
41	161
41	162
41	163
41	164
41	165
41	169
41	170
41	172
41	173
41	174
41	175
41	178
41	179
41	180
41	183
41	184
41	186
41	187
41	188
41	189
41	192
41	193
41	194
41	195
41	197
41	198
41	199
42	45
42	46
42	47
42	52
42	53
42	54
42	55
42	56
42	57
42	58
42	62
42	63
42	65
42	66
42	67
42	70
42	71
42	72
42	73
42	74
42	75
42	77
42	78
42	80
42	81
42	82
42	83
42	84
42	88
42	89
42	91
42	92
42	94
42	97
42	98
42	99
42	100
42	101
42	103
42	105
42	106
42	108
42	110
42	112
42	113
42	114
42	117
42	118
42	119
42	120
42	121
42	122
42	123
42	124
42	125
42	126
42	127
42	128
42	129
42	131
42	132
42	135
42	137
42	138
42	139
42	140
42	141
42	142
42	143
42	144
42	145
42	146
42	147
42	151
42	152
42	153
42	155
42	157
42	159
42	161
42	162
42	163
42	164
42	165
42	166
42	167
42	169
42	170
42	171
42	172
42	173
42	176
42	177
42	178
42	181
42	182
42	183
42	184
42	185
42	186
42	187
42	188
42	189
42	191
42	192
42	193
42	194
42	195
42	196
42	197
42	199
43	45
43	46
43	47
43	49
43	50
43	51
43	52
43	53
43	54
43	55
43	57
43	58
43	59
43	60
43	62
43	64
43	65
43	66
43	67
43	68
43	71
43	72
43	76
43	77
43	78
43	79
43	80
43	81
43	82
43	84
43	85
43	87
43	88
43	89
43	90
43	92
43	93
43	95
43	96
43	97
43	99
43	102
43	104
43	105
43	107
43	108
43	112
43	114
43	116
43	117
43	118
43	120
43	121
43	123
43	124
43	130
43	131
43	132
43	134
43	137
43	138
43	139
43	140
43	141
43	143
43	144
43	145
43	147
43	149
43	150
43	151
43	152
43	153
43	155
43	156
43	158
43	160
43	161
43	162
43	163
43	164
43	167
43	168
43	169
43	170
43	171
43	174
43	175
43	176
43	177
43	179
43	181
43	182
43	183
43	185
43	186
43	188
43	189
43	192
43	193
43	195
43	198
43	199
44	45
44	46
44	47
44	48
44	49
44	51
44	53
44	54
44	55
44	58
44	59
44	60
44	61
44	62
44	63
44	64
44	66
44	67
44	69
44	70
44	71
44	72
44	73
44	75
44	77
44	79
44	80
44	81
44	83
44	85
44	86
44	88
44	93
44	94
44	95
44	96
44	98
44	99
44	100
44	101
44	102
44	104
44	105
44	106
44	107
44	108
44	109
44	110
44	111
44	112
44	113
44	114
44	115
44	117
44	118
44	120
44	121
44	123
44	124
44	125
44	126
44	128
44	129
44	130
44	131
44	132
44	133
44	134
44	135
44	136
44	139
44	140
44	141
44	142
44	143
44	146
44	147
44	148
44	149
44	150
44	151
44	152
44	153
44	156
44	157
44	158
44	160
44	161
44	162
44	163
44	164
44	167
44	169
44	173
44	174
44	175
44	176
44	177
44	178
44	181
44	182
44	183
44	185
44	187
44	188
44	189
44	190
44	191
44	195
44	196
44	197
44	198
44	199
45	46
45	47
45	48
45	52
45	53
45	54
45	56
45	57
45	58
45	60
45	61
45	62
45	63
45	65
45	67
45	71
45	73
45	74
45	75
45	77
45	79
45	80
45	83
45	84
45	85
45	86
45	87
45	88
45	91
45	92
45	94
45	96
45	97
45	99
45	100
45	103
45	104
45	107
45	110
45	112
45	113
45	114
45	115
45	116
45	117
45	121
45	122
45	123
45	124
45	125
45	128
45	130
45	131
45	132
45	140
45	142
45	144
45	145
45	146
45	147
45	148
45	149
45	150
45	151
45	153
45	154
45	155
45	156
45	157
45	158
45	159
45	160
45	161
45	164
45	165
45	166
45	167
45	168
45	169
45	172
45	173
45	175
45	177
45	179
45	180
45	181
45	182
45	183
45	185
45	186
45	187
45	188
45	190
45	191
45	192
45	193
45	194
45	195
45	198
45	199
46	47
46	48
46	49
46	50
46	54
46	56
46	58
46	60
46	61
46	63
46	66
46	67
46	68
46	71
46	72
46	73
46	75
46	76
46	77
46	78
46	80
46	84
46	85
46	87
46	88
46	89
46	90
46	91
46	92
46	94
46	95
46	96
46	97
46	98
46	99
46	100
46	103
46	104
46	108
46	109
46	110
46	111
46	113
46	114
46	115
46	116
46	118
46	120
46	121
46	122
46	124
46	126
46	127
46	128
46	129
46	131
46	132
46	134
46	135
46	136
46	139
46	140
46	141
46	146
46	147
46	150
46	152
46	155
46	156
46	158
46	159
46	160
46	161
46	162
46	163
46	166
46	167
46	169
46	170
46	172
46	175
46	176
46	177
46	178
46	179
46	182
46	183
46	185
46	187
46	188
46	189
46	190
46	191
46	192
46	193
46	195
46	197
46	198
47	50
47	51
47	52
47	53
47	54
47	55
47	56
47	58
47	59
47	61
47	62
47	63
47	64
47	67
47	68
47	69
47	71
47	72
47	73
47	74
47	75
47	76
47	77
47	78
47	79
47	82
47	83
47	84
47	85
47	86
47	87
47	88
47	89
47	90
47	92
47	93
47	94
47	96
47	97
47	98
47	99
47	100
47	101
47	102
47	106
47	108
47	109
47	111
47	112
47	114
47	115
47	116
47	117
47	118
47	119
47	120
47	121
47	122
47	123
47	124
47	127
47	128
47	129
47	130
47	131
47	132
47	134
47	135
47	137
47	138
47	139
47	140
47	141
47	142
47	143
47	144
47	146
47	147
47	151
47	152
47	153
47	154
47	155
47	156
47	157
47	158
47	159
47	163
47	164
47	165
47	166
47	167
47	168
47	171
47	174
47	176
47	178
47	179
47	180
47	181
47	182
47	185
47	186
47	190
47	192
47	193
47	194
47	195
47	196
47	199
48	49
48	50
48	51
48	52
48	53
48	54
48	55
48	56
48	57
48	59
48	61
48	64
48	65
48	66
48	67
48	68
48	69
48	70
48	73
48	75
48	76
48	77
48	78
48	79
48	80
48	81
48	82
48	84
48	85
48	86
48	87
48	88
48	89
48	91
48	93
48	94
48	97
48	98
48	99
48	101
48	102
48	108
48	110
48	112
48	115
48	117
48	119
48	121
48	122
48	123
48	124
48	125
48	126
48	127
48	128
48	129
48	130
48	133
48	136
48	141
48	142
48	143
48	145
48	147
48	151
48	152
48	153
48	154
48	155
48	156
48	157
48	158
48	159
48	160
48	162
48	163
48	164
48	165
48	167
48	168
48	173
48	174
48	175
48	176
48	177
48	178
48	180
48	181
48	182
48	183
48	184
48	185
48	187
48	188
48	189
48	190
48	191
48	192
48	193
48	194
48	195
48	197
48	199
49	51
49	53
49	54
49	55
49	56
49	57
49	58
49	59
49	60
49	61
49	62
49	63
49	65
49	66
49	68
49	69
49	70
49	71
49	72
49	73
49	74
49	75
49	76
49	77
49	79
49	80
49	81
49	83
49	84
49	85
49	86
49	87
49	88
49	89
49	91
49	92
49	93
49	94
49	95
49	97
49	98
49	103
49	105
49	107
49	108
49	109
49	110
49	111
49	112
49	113
49	115
49	116
49	117
49	118
49	119
49	120
49	121
49	122
49	123
49	127
49	128
49	129
49	130
49	133
49	134
49	138
49	140
49	141
49	142
49	143
49	144
49	145
49	149
49	150
49	151
49	152
49	154
49	156
49	157
49	158
49	160
49	163
49	164
49	166
49	169
49	170
49	171
49	172
49	178
49	180
49	182
49	187
49	188
49	189
49	191
49	192
49	193
49	195
49	196
49	197
49	199
50	52
50	53
50	54
50	55
50	56
50	58
50	59
50	60
50	61
50	62
50	63
50	64
50	66
50	67
50	68
50	69
50	70
50	72
50	75
50	77
50	78
50	82
50	83
50	84
50	87
50	88
50	89
50	90
50	92
50	94
50	95
50	96
50	97
50	98
50	99
50	103
50	104
50	106
50	107
50	110
50	114
50	115
50	116
50	117
50	118
50	119
50	120
50	121
50	122
50	123
50	125
50	126
50	127
50	128
50	129
50	130
50	131
50	132
50	133
50	134
50	136
50	137
50	138
50	140
50	141
50	142
50	143
50	144
50	147
50	148
50	149
50	150
50	151
50	152
50	153
50	154
50	155
50	156
50	157
50	158
50	159
50	160
50	161
50	162
50	163
50	164
50	165
50	166
50	167
50	168
50	169
50	170
50	172
50	173
50	174
50	175
50	176
50	177
50	179
50	180
50	181
50	185
50	187
50	188
50	189
50	190
50	191
50	192
50	193
50	196
50	197
50	198
50	199
51	54
51	56
51	58
51	59
51	60
51	61
51	63
51	66
51	67
51	68
51	69
51	72
51	73
51	74
51	75
51	76
51	77
51	80
51	81
51	82
51	83
51	84
51	85
51	86
51	87
51	88
51	89
51	90
51	91
51	92
51	95
51	97
51	98
51	100
51	102
51	106
51	107
51	108
51	110
51	112
51	113
51	114
51	115
51	116
51	118
51	119
51	121
51	122
51	123
51	124
51	125
51	126
51	128
51	129
51	130
51	132
51	133
51	135
51	136
51	138
51	139
51	141
51	142
51	143
51	144
51	145
51	147
51	148
51	151
51	152
51	153
51	155
51	159
51	160
51	161
51	162
51	163
51	164
51	165
51	166
51	167
51	168
51	171
51	172
51	174
51	175
51	176
51	177
51	181
51	182
51	183
51	184
51	186
51	189
51	190
51	191
51	192
51	194
51	195
51	196
51	198
51	199
52	54
52	56
52	57
52	58
52	59
52	60
52	61
52	62
52	64
52	67
52	70
52	71
52	73
52	74
52	75
52	78
52	79
52	80
52	81
52	84
52	85
52	87
52	90
52	92
52	94
52	95
52	96
52	97
52	98
52	99
52	100
52	102
52	103
52	104
52	105
52	106
52	107
52	108
52	110
52	111
52	112
52	113
52	114
52	115
52	116
52	118
52	119
52	121
52	122
52	123
52	124
52	126
52	127
52	128
52	129
52	130
52	132
52	134
52	135
52	139
52	141
52	142
52	143
52	144
52	145
52	148
52	150
52	151
52	152
52	153
52	154
52	155
52	157
52	158
52	159
52	160
52	162
52	163
52	165
52	166
52	167
52	168
52	169
52	172
52	173
52	174
52	175
52	179
52	182
52	183
52	185
52	186
52	188
52	189
52	190
52	192
52	193
52	194
52	195
52	197
53	54
53	55
53	63
53	64
53	65
53	66
53	67
53	69
53	71
53	72
53	73
53	74
53	75
53	76
53	77
53	78
53	79
53	80
53	81
53	82
53	83
53	84
53	85
53	87
53	88
53	90
53	92
53	93
53	94
53	95
53	96
53	98
53	99
53	100
53	101
53	102
53	103
53	104
53	105
53	107
53	108
53	109
53	110
53	111
53	112
53	113
53	116
53	120
53	121
53	123
53	124
53	125
53	126
53	127
53	128
53	129
53	131
53	132
53	133
53	134
53	135
53	136
53	139
53	140
53	142
53	143
53	144
53	145
53	146
53	149
53	151
53	152
53	153
53	154
53	155
53	159
53	160
53	164
53	167
53	169
53	170
53	172
53	173
53	174
53	175
53	176
53	177
53	178
53	179
53	180
53	181
53	182
53	184
53	185
53	187
53	188
53	189
53	190
53	191
53	192
53	193
53	195
53	196
53	197
53	198
53	199
54	55
54	56
54	58
54	60
54	61
54	62
54	63
54	66
54	68
54	70
54	73
54	74
54	75
54	77
54	79
54	80
54	81
54	82
54	84
54	85
54	86
54	87
54	88
54	89
54	90
54	91
54	93
54	94
54	95
54	97
54	98
54	99
54	100
54	101
54	102
54	103
54	104
54	105
54	106
54	107
54	108
54	109
54	110
54	112
54	114
54	115
54	116
54	117
54	118
54	119
54	120
54	123
54	128
54	129
54	130
54	131
54	132
54	133
54	134
54	135
54	136
54	137
54	138
54	139
54	140
54	141
54	142
54	143
54	144
54	145
54	146
54	147
54	148
54	149
54	151
54	152
54	154
54	155
54	157
54	158
54	159
54	161
54	162
54	163
54	164
54	165
54	166
54	167
54	168
54	169
54	170
54	171
54	172
54	173
54	174
54	175
54	176
54	177
54	178
54	179
54	181
54	182
54	183
54	184
54	185
54	186
54	187
54	188
54	189
54	190
54	191
54	193
54	195
54	196
54	197
54	198
54	199
55	56
55	58
55	59
55	60
55	61
55	62
55	63
55	64
55	65
55	66
55	67
55	68
55	69
55	71
55	72
55	73
55	74
55	78
55	82
55	83
55	84
55	85
55	86
55	87
55	88
55	93
55	94
55	95
55	96
55	100
55	102
55	103
55	104
55	105
55	107
55	108
55	109
55	115
55	116
55	117
55	120
55	121
55	122
55	123
55	125
55	127
55	128
55	129
55	130
55	131
55	132
55	133
55	135
55	136
55	138
55	141
55	142
55	144
55	145
55	146
55	147
55	148
55	150
55	151
55	152
55	153
55	155
55	157
55	158
55	159
55	160
55	163
55	164
55	165
55	166
55	168
55	169
55	170
55	172
55	173
55	174
55	178
55	179
55	180
55	181
55	183
55	184
55	185
55	186
55	189
55	191
55	192
55	193
55	195
55	196
55	198
55	199
56	57
56	58
56	59
56	62
56	66
56	68
56	69
56	70
56	71
56	72
56	73
56	74
56	75
56	76
56	77
56	78
56	79
56	80
56	82
56	86
56	87
56	88
56	90
56	95
56	96
56	97
56	98
56	100
56	101
56	102
56	104
56	105
56	106
56	107
56	108
56	109
56	110
56	111
56	112
56	113
56	114
56	115
56	116
56	118
56	119
56	120
56	121
56	122
56	123
56	125
56	127
56	128
56	129
56	130
56	132
56	133
56	135
56	136
56	139
56	140
56	141
56	143
56	144
56	145
56	146
56	148
56	150
56	154
56	155
56	156
56	159
56	160
56	161
56	162
56	163
56	165
56	166
56	167
56	168
56	169
56	170
56	171
56	172
56	173
56	174
56	176
56	178
56	182
56	183
56	185
56	186
56	188
56	189
56	190
56	191
56	192
56	193
56	195
56	196
56	197
56	198
56	199
57	58
57	59
57	61
57	63
57	64
57	65
57	66
57	67
57	68
57	69
57	70
57	71
57	72
57	74
57	76
57	78
57	80
57	81
57	82
57	83
57	84
57	86
57	88
57	89
57	90
57	91
57	93
57	95
57	96
57	97
57	98
57	99
57	100
57	102
57	104
57	105
57	106
57	107
57	108
57	109
57	111
57	113
57	115
57	116
57	118
57	120
57	121
57	122
57	123
57	124
57	125
57	126
57	128
57	129
57	130
57	131
57	132
57	134
57	135
57	136
57	137
57	138
57	140
57	141
57	142
57	143
57	145
57	147
57	148
57	149
57	150
57	151
57	152
57	153
57	154
57	156
57	157
57	158
57	159
57	160
57	161
57	162
57	163
57	165
57	166
57	167
57	170
57	171
57	172
57	173
57	174
57	175
57	177
57	178
57	180
57	181
57	182
57	185
57	186
57	187
57	189
57	191
57	192
57	195
57	196
57	198
57	199
58	59
58	61
58	63
58	64
58	65
58	66
58	67
58	68
58	69
58	71
58	72
58	76
58	78
58	79
58	84
58	85
58	86
58	87
58	89
58	91
58	92
58	93
58	94
58	97
58	98
58	99
58	100
58	101
58	102
58	103
58	104
58	105
58	106
58	107
58	108
58	110
58	113
58	115
58	116
58	119
58	121
58	123
58	124
58	126
58	128
58	129
58	130
58	131
58	133
58	136
58	137
58	138
58	139
58	142
58	144
58	146
58	147
58	151
58	152
58	155
58	158
58	160
58	161
58	162
58	163
58	165
58	167
58	168
58	169
58	170
58	171
58	172
58	175
58	177
58	179
58	180
58	181
58	182
58	183
58	184
58	185
58	186
58	187
58	188
58	189
58	190
58	191
58	192
58	193
58	195
58	196
58	197
58	198
58	199
59	60
59	61
59	63
59	64
59	65
59	66
59	69
59	70
59	72
59	74
59	75
59	76
59	77
59	79
59	80
59	82
59	83
59	84
59	86
59	88
59	90
59	91
59	92
59	93
59	95
59	97
59	101
59	102
59	104
59	106
59	108
59	109
59	110
59	111
59	112
59	113
59	116
59	117
59	120
59	121
59	122
59	123
59	124
59	125
59	126
59	127
59	129
59	130
59	132
59	135
59	136
59	137
59	138
59	139
59	140
59	142
59	144
59	145
59	147
59	148
59	149
59	150
59	151
59	152
59	154
59	155
59	156
59	157
59	159
59	160
59	161
59	162
59	163
59	167
59	168
59	169
59	170
59	172
59	173
59	175
59	177
59	181
59	182
59	183
59	184
59	185
59	187
59	188
59	189
59	191
59	192
59	194
59	195
59	199
60	61
60	62
60	64
60	65
60	68
60	69
60	70
60	71
60	72
60	73
60	74
60	76
60	77
60	78
60	80
60	81
60	82
60	83
60	84
60	85
60	86
60	87
60	88
60	89
60	90
60	91
60	94
60	95
60	96
60	100
60	101
60	103
60	104
60	105
60	106
60	110
60	112
60	113
60	114
60	115
60	116
60	117
60	118
60	120
60	122
60	125
60	127
60	128
60	131
60	132
60	136
60	137
60	138
60	139
60	141
60	142
60	144
60	145
60	146
60	149
60	151
60	152
60	153
60	155
60	156
60	158
60	159
60	160
60	161
60	164
60	165
60	166
60	167
60	169
60	170
60	171
60	172
60	173
60	174
60	175
60	177
60	178
60	179
60	180
60	181
60	184
60	185
60	186
60	187
60	188
60	189
60	190
60	194
60	196
60	197
60	198
60	199
61	62
61	66
61	67
61	68
61	69
61	70
61	73
61	74
61	75
61	76
61	77
61	78
61	79
61	80
61	81
61	82
61	83
61	84
61	86
61	87
61	90
61	91
61	92
61	95
61	96
61	97
61	98
61	100
61	102
61	103
61	104
61	105
61	106
61	107
61	109
61	111
61	112
61	113
61	115
61	116
61	117
61	118
61	120
61	122
61	123
61	124
61	128
61	129
61	131
61	132
61	133
61	134
61	135
61	136
61	138
61	139
61	140
61	143
61	144
61	146
61	147
61	148
61	149
61	151
61	152
61	154
61	159
61	160
61	161
61	162
61	164
61	166
61	167
61	169
61	171
61	172
61	173
61	174
61	175
61	176
61	177
61	178
61	181
61	182
61	183
61	184
61	185
61	188
61	192
61	193
61	194
61	196
61	198
61	199
62	64
62	66
62	69
62	70
62	71
62	72
62	76
62	79
62	83
62	87
62	88
62	89
62	90
62	91
62	94
62	96
62	97
62	98
62	99
62	100
62	102
62	103
62	105
62	106
62	108
62	110
62	111
62	113
62	115
62	116
62	117
62	119
62	120
62	121
62	122
62	123
62	124
62	125
62	128
62	129
62	130
62	131
62	132
62	133
62	134
62	135
62	137
62	139
62	140
62	141
62	142
62	143
62	145
62	148
62	150
62	152
62	155
62	156
62	158
62	160
62	162
62	164
62	168
62	170
62	172
62	173
62	174
62	175
62	176
62	177
62	178
62	179
62	180
62	181
62	182
62	183
62	184
62	185
62	187
62	189
62	190
62	191
62	192
62	193
62	194
62	195
62	196
62	197
62	198
62	199
63	64
63	65
63	66
63	67
63	70
63	71
63	72
63	75
63	76
63	78
63	79
63	80
63	81
63	82
63	83
63	84
63	85
63	86
63	90
63	91
63	92
63	93
63	95
63	96
63	97
63	98
63	99
63	100
63	101
63	102
63	104
63	105
63	106
63	107
63	108
63	109
63	111
63	113
63	114
63	115
63	116
63	117
63	118
63	119
63	121
63	122
63	124
63	125
63	126
63	128
63	130
63	132
63	134
63	135
63	136
63	137
63	139
63	140
63	142
63	146
63	147
63	149
63	150
63	152
63	153
63	154
63	158
63	160
63	161
63	164
63	165
63	166
63	170
63	172
63	173
63	175
63	176
63	177
63	178
63	179
63	180
63	181
63	184
63	185
63	186
63	187
63	188
63	189
63	190
63	194
63	195
63	196
63	197
64	65
64	66
64	70
64	71
64	72
64	74
64	75
64	76
64	77
64	78
64	79
64	81
64	82
64	85
64	87
64	88
64	89
64	91
64	92
64	93
64	94
64	95
64	96
64	98
64	99
64	100
64	102
64	108
64	109
64	111
64	112
64	113
64	114
64	115
64	116
64	117
64	119
64	121
64	123
64	125
64	127
64	129
64	131
64	132
64	133
64	134
64	136
64	137
64	140
64	142
64	144
64	145
64	146
64	147
64	148
64	150
64	151
64	152
64	153
64	155
64	156
64	157
64	159
64	162
64	164
64	165
64	168
64	169
64	172
64	173
64	175
64	176
64	178
64	179
64	180
64	181
64	184
64	185
64	186
64	187
64	188
64	189
64	191
64	192
64	193
64	195
64	196
64	198
64	199
65	66
65	67
65	68
65	69
65	70
65	74
65	75
65	76
65	77
65	78
65	80
65	81
65	82
65	83
65	84
65	85
65	86
65	87
65	88
65	90
65	91
65	92
65	93
65	94
65	95
65	96
65	97
65	98
65	99
65	102
65	103
65	104
65	107
65	109
65	110
65	112
65	113
65	114
65	115
65	117
65	118
65	119
65	123
65	124
65	125
65	126
65	128
65	129
65	130
65	131
65	132
65	134
65	137
65	138
65	139
65	141
65	142
65	143
65	144
65	145
65	146
65	148
65	149
65	150
65	151
65	153
65	154
65	155
65	156
65	157
65	159
65	160
65	161
65	163
65	164
65	165
65	166
65	167
65	170
65	171
65	172
65	173
65	174
65	175
65	176
65	177
65	178
65	179
65	180
65	182
65	183
65	186
65	187
65	188
65	189
65	190
65	191
65	193
65	194
65	195
65	197
65	198
65	199
66	67
66	69
66	70
66	71
66	72
66	74
66	76
66	78
66	79
66	80
66	81
66	83
66	84
66	85
66	86
66	88
66	89
66	90
66	91
66	92
66	93
66	95
66	97
66	98
66	99
66	100
66	101
66	102
66	103
66	105
66	107
66	110
66	111
66	112
66	113
66	114
66	115
66	116
66	117
66	118
66	120
66	122
66	123
66	124
66	127
66	128
66	132
66	133
66	136
66	137
66	138
66	139
66	140
66	141
66	143
66	144
66	145
66	146
66	148
66	149
66	151
66	152
66	155
66	157
66	158
66	159
66	160
66	161
66	163
66	165
66	166
66	167
66	168
66	169
66	170
66	172
66	174
66	175
66	176
66	177
66	178
66	180
66	181
66	182
66	183
66	184
66	185
66	187
66	189
66	190
66	191
66	192
66	195
66	196
66	197
66	198
66	199
67	68
67	69
67	70
67	71
67	72
67	75
67	76
67	77
67	78
67	79
67	82
67	83
67	84
67	86
67	88
67	89
67	90
67	91
67	92
67	93
67	94
67	95
67	96
67	97
67	99
67	100
67	101
67	105
67	106
67	107
67	110
67	111
67	112
67	113
67	116
67	117
67	118
67	119
67	122
67	123
67	124
67	125
67	126
67	127
67	128
67	129
67	130
67	131
67	132
67	133
67	135
67	136
67	137
67	138
67	139
67	140
67	141
67	142
67	144
67	146
67	147
67	148
67	149
67	151
67	152
67	154
67	155
67	156
67	157
67	160
67	161
67	162
67	164
67	166
67	168
67	169
67	170
67	171
67	172
67	173
67	174
67	175
67	176
67	177
67	178
67	179
67	185
67	186
67	187
67	188
67	189
67	190
67	191
67	192
67	193
67	194
67	196
67	197
67	199
68	69
68	70
68	72
68	75
68	76
68	77
68	78
68	80
68	81
68	82
68	83
68	84
68	86
68	87
68	88
68	89
68	91
68	95
68	96
68	98
68	99
68	100
68	101
68	102
68	103
68	104
68	105
68	107
68	109
68	110
68	111
68	114
68	115
68	120
68	121
68	122
68	123
68	124
68	126
68	127
68	131
68	132
68	133
68	134
68	135
68	136
68	138
68	139
68	140
68	142
68	143
68	145
68	146
68	147
68	148
68	149
68	150
68	151
68	153
68	154
68	155
68	156
68	157
68	159
68	163
68	164
68	166
68	167
68	169
68	170
68	171
68	172
68	174
68	176
68	178
68	179
68	180
68	181
68	182
68	183
68	184
68	187
68	188
68	192
68	193
68	194
68	196
68	197
68	198
68	199
69	72
69	77
69	79
69	81
69	82
69	83
69	84
69	85
69	87
69	90
69	94
69	95
69	96
69	98
69	100
69	101
69	103
69	104
69	105
69	106
69	107
69	108
69	109
69	110
69	111
69	113
69	114
69	115
69	117
69	119
69	120
69	122
69	123
69	124
69	126
69	127
69	128
69	130
69	132
69	134
69	136
69	137
69	138
69	139
69	141
69	143
69	144
69	145
69	149
69	150
69	151
69	152
69	154
69	155
69	156
69	158
69	159
69	161
69	162
69	163
69	164
69	170
69	171
69	172
69	174
69	175
69	176
69	177
69	178
69	182
69	183
69	185
69	186
69	187
69	188
69	191
69	192
69	194
69	195
69	196
69	197
69	198
69	199
70	71
70	72
70	73
70	75
70	76
70	77
70	78
70	79
70	81
70	82
70	84
70	85
70	87
70	88
70	89
70	90
70	96
70	97
70	98
70	100
70	102
70	106
70	107
70	108
70	109
70	111
70	113
70	114
70	115
70	116
70	117
70	118
70	119
70	120
70	122
70	123
70	125
70	127
70	128
70	129
70	130
70	131
70	132
70	133
70	134
70	135
70	136
70	137
70	138
70	139
70	141
70	142
70	143
70	144
70	149
70	150
70	151
70	154
70	157
70	158
70	159
70	160
70	161
70	162
70	164
70	167
70	168
70	169
70	170
70	172
70	173
70	174
70	175
70	176
70	177
70	178
70	179
70	180
70	181
70	182
70	183
70	184
70	187
70	188
70	189
70	192
70	193
70	194
70	195
70	196
70	197
70	199
71	72
71	73
71	74
71	77
71	78
71	79
71	80
71	81
71	82
71	87
71	88
71	90
71	93
71	94
71	95
71	96
71	98
71	99
71	100
71	101
71	104
71	106
71	107
71	108
71	110
71	111
71	112
71	115
71	116
71	118
71	119
71	120
71	121
71	122
71	123
71	125
71	126
71	127
71	128
71	130
71	132
71	134
71	135
71	137
71	139
71	140
71	141
71	142
71	143
71	144
71	145
71	146
71	148
71	149
71	150
71	151
71	152
71	153
71	154
71	155
71	157
71	158
71	159
71	160
71	161
71	162
71	163
71	164
71	166
71	167
71	168
71	169
71	171
71	172
71	173
71	174
71	175
71	176
71	178
71	179
71	180
71	181
71	182
71	184
71	185
71	187
71	188
71	189
71	194
71	195
71	197
71	199
72	75
72	76
72	80
72	82
72	84
72	87
72	88
72	92
72	93
72	94
72	95
72	96
72	97
72	98
72	100
72	101
72	102
72	103
72	104
72	105
72	106
72	107
72	108
72	109
72	110
72	111
72	112
72	113
72	114
72	115
72	116
72	117
72	118
72	120
72	121
72	125
72	126
72	129
72	130
72	131
72	132
72	133
72	134
72	135
72	136
72	137
72	141
72	142
72	143
72	147
72	148
72	149
72	150
72	153
72	154
72	155
72	156
72	157
72	158
72	159
72	160
72	161
72	162
72	164
72	165
72	166
72	167
72	168
72	169
72	170
72	171
72	172
72	173
72	175
72	176
72	177
72	180
72	181
72	182
72	184
72	185
72	186
72	187
72	188
72	189
72	190
72	192
72	193
72	196
72	199
73	74
73	75
73	76
73	77
73	78
73	79
73	81
73	82
73	83
73	84
73	90
73	91
73	92
73	93
73	94
73	95
73	96
73	98
73	99
73	101
73	102
73	105
73	107
73	108
73	109
73	110
73	111
73	112
73	114
73	116
73	118
73	119
73	121
73	123
73	125
73	127
73	128
73	130
73	132
73	133
73	134
73	135
73	136
73	137
73	138
73	139
73	141
73	142
73	143
73	144
73	145
73	146
73	148
73	150
73	151
73	152
73	154
73	155
73	156
73	157
73	159
73	160
73	161
73	162
73	163
73	165
73	166
73	167
73	168
73	169
73	170
73	171
73	176
73	177
73	180
73	181
73	182
73	184
73	185
73	186
73	187
73	189
73	191
73	192
73	193
73	194
73	195
73	196
73	197
73	198
73	199
74	75
74	77
74	80
74	82
74	83
74	85
74	88
74	92
74	93
74	95
74	98
74	99
74	100
74	102
74	104
74	106
74	107
74	109
74	110
74	113
74	114
74	115
74	116
74	117
74	118
74	119
74	121
74	122
74	123
74	124
74	125
74	127
74	128
74	129
74	130
74	131
74	134
74	135
74	137
74	139
74	140
74	142
74	143
74	146
74	147
74	148
74	149
74	150
74	153
74	154
74	155
74	156
74	158
74	159
74	160
74	163
74	165
74	166
74	167
74	169
74	170
74	171
74	174
74	178
74	180
74	183
74	187
74	190
74	191
74	193
74	194
74	195
74	197
74	198
74	199
75	77
75	79
75	80
75	81
75	82
75	83
75	84
75	85
75	87
75	88
75	91
75	93
75	94
75	95
75	96
75	99
75	100
75	103
75	104
75	105
75	107
75	108
75	111
75	112
75	113
75	114
75	116
75	117
75	118
75	119
75	120
75	121
75	122
75	126
75	127
75	128
75	129
75	130
75	132
75	133
75	134
75	136
75	137
75	138
75	141
75	142
75	143
75	144
75	145
75	146
75	147
75	149
75	150
75	152
75	153
75	155
75	156
75	157
75	158
75	161
75	163
75	164
75	165
75	167
75	168
75	169
75	170
75	171
75	172
75	173
75	175
75	178
75	179
75	180
75	181
75	182
75	185
75	186
75	187
75	188
75	189
75	190
75	193
75	194
75	195
75	196
75	197
75	198
76	77
76	78
76	79
76	80
76	81
76	86
76	87
76	88
76	89
76	90
76	92
76	93
76	94
76	96
76	98
76	99
76	100
76	101
76	102
76	103
76	104
76	106
76	109
76	110
76	111
76	112
76	113
76	115
76	117
76	119
76	120
76	121
76	122
76	123
76	124
76	125
76	127
76	129
76	131
76	132
76	133
76	134
76	135
76	136
76	137
76	138
76	140
76	141
76	146
76	147
76	148
76	151
76	152
76	154
76	155
76	157
76	160
76	161
76	162
76	163
76	166
76	168
76	169
76	171
76	172
76	174
76	175
76	176
76	177
76	178
76	179
76	180
76	182
76	183
76	184
76	187
76	188
76	189
76	190
76	192
76	193
76	194
76	196
76	197
76	199
77	78
77	79
77	80
77	81
77	82
77	84
77	88
77	89
77	90
77	92
77	96
77	97
77	98
77	99
77	100
77	101
77	103
77	104
77	107
77	108
77	109
77	113
77	114
77	115
77	116
77	117
77	118
77	120
77	121
77	123
77	124
77	125
77	126
77	129
77	130
77	132
77	134
77	135
77	138
77	139
77	140
77	141
77	143
77	144
77	145
77	150
77	151
77	152
77	153
77	155
77	157
77	158
77	160
77	161
77	162
77	163
77	164
77	166
77	167
77	169
77	170
77	171
77	172
77	173
77	174
77	175
77	177
77	180
77	181
77	182
77	185
77	188
77	189
77	190
77	191
77	192
77	193
77	194
77	195
77	196
78	80
78	81
78	82
78	84
78	85
78	86
78	87
78	88
78	89
78	91
78	92
78	93
78	94
78	95
78	96
78	97
78	98
78	99
78	101
78	103
78	105
78	106
78	108
78	109
78	110
78	112
78	114
78	116
78	117
78	118
78	119
78	121
78	122
78	123
78	124
78	125
78	126
78	127
78	129
78	130
78	132
78	133
78	134
78	135
78	137
78	138
78	139
78	140
78	142
78	147
78	148
78	149
78	150
78	152
78	153
78	154
78	155
78	156
78	157
78	158
78	159
78	160
78	161
78	163
78	165
78	168
78	171
78	173
78	174
78	175
78	178
78	180
78	182
78	183
78	184
78	186
78	187
78	188
78	189
78	190
78	192
78	193
78	194
78	196
78	198
78	199
79	81
79	82
79	83
79	85
79	87
79	88
79	89
79	90
79	91
79	92
79	93
79	96
79	97
79	98
79	99
79	102
79	104
79	105
79	107
79	109
79	110
79	111
79	112
79	114
79	116
79	117
79	118
79	119
79	120
79	121
79	122
79	123
79	124
79	125
79	126
79	127
79	129
79	132
79	137
79	138
79	140
79	141
79	142
79	143
79	144
79	145
79	146
79	148
79	151
79	152
79	153
79	155
79	156
79	157
79	159
79	161
79	163
79	164
79	165
79	166
79	167
79	168
79	169
79	170
79	171
79	172
79	176
79	177
79	178
79	179
79	181
79	182
79	184
79	186
79	187
79	189
79	190
79	193
79	195
79	197
79	199
80	81
80	82
80	83
80	85
80	86
80	88
80	89
80	90
80	92
80	93
80	95
80	96
80	98
80	99
80	102
80	103
80	105
80	106
80	107
80	108
80	109
80	110
80	111
80	113
80	114
80	116
80	117
80	118
80	121
80	122
80	123
80	124
80	125
80	126
80	127
80	128
80	130
80	131
80	133
80	135
80	137
80	139
80	140
80	142
80	144
80	145
80	147
80	149
80	150
80	151
80	152
80	153
80	156
80	157
80	158
80	159
80	160
80	161
80	165
80	166
80	167
80	168
80	169
80	171
80	172
80	173
80	174
80	175
80	176
80	178
80	179
80	180
80	181
80	184
80	185
80	186
80	187
80	188
80	189
80	190
80	192
80	193
80	195
80	196
80	197
80	198
80	199
81	82
81	83
81	84
81	86
81	87
81	88
81	90
81	91
81	92
81	93
81	94
81	96
81	97
81	98
81	99
81	100
81	101
81	102
81	105
81	106
81	107
81	108
81	109
81	111
81	112
81	113
81	114
81	116
81	117
81	118
81	119
81	120
81	121
81	122
81	123
81	125
81	126
81	128
81	129
81	130
81	133
81	135
81	136
81	137
81	138
81	139
81	140
81	141
81	142
81	143
81	144
81	145
81	147
81	148
81	149
81	152
81	153
81	154
81	155
81	156
81	157
81	158
81	161
81	163
81	165
81	166
81	168
81	169
81	170
81	172
81	178
81	179
81	180
81	182
81	185
81	186
81	187
81	188
81	190
81	191
81	194
81	195
81	196
81	197
81	198
81	199
82	84
82	85
82	86
82	87
82	88
82	89
82	90
82	91
82	92
82	94
82	95
82	96
82	97
82	99
82	100
82	101
82	102
82	103
82	104
82	106
82	108
82	110
82	112
82	114
82	116
82	118
82	120
82	122
82	123
82	125
82	127
82	129
82	131
82	133
82	136
82	139
82	140
82	144
82	145
82	146
82	148
82	149
82	150
82	154
82	155
82	156
82	157
82	158
82	159
82	161
82	163
82	164
82	165
82	166
82	167
82	168
82	169
82	170
82	173
82	175
82	176
82	177
82	178
82	180
82	182
82	183
82	185
82	187
82	188
82	189
82	190
82	193
82	194
82	195
82	196
83	85
83	88
83	90
83	91
83	92
83	94
83	98
83	99
83	101
83	103
83	104
83	105
83	106
83	107
83	108
83	109
83	111
83	112
83	114
83	115
83	116
83	117
83	118
83	119
83	121
83	123
83	124
83	125
83	127
83	128
83	129
83	130
83	131
83	132
83	133
83	134
83	135
83	137
83	138
83	139
83	141
83	142
83	144
83	146
83	147
83	148
83	149
83	152
83	153
83	154
83	157
83	160
83	161
83	162
83	163
83	165
83	169
83	170
83	171
83	172
83	174
83	175
83	176
83	177
83	180
83	181
83	183
83	184
83	186
83	188
83	191
83	192
83	194
83	195
83	196
83	197
83	198
83	199
84	85
84	86
84	87
84	88
84	89
84	90
84	91
84	93
84	94
84	95
84	96
84	98
84	99
84	100
84	101
84	102
84	104
84	105
84	107
84	111
84	112
84	113
84	114
84	115
84	119
84	120
84	124
84	125
84	126
84	127
84	128
84	129
84	130
84	131
84	132
84	133
84	134
84	136
84	138
84	140
84	142
84	143
84	144
84	147
84	149
84	150
84	152
84	154
84	156
84	158
84	159
84	160
84	162
84	163
84	164
84	165
84	167
84	168
84	170
84	171
84	174
84	177
84	178
84	179
84	181
84	182
84	183
84	184
84	186
84	187
84	189
84	190
84	191
84	194
84	195
84	196
84	197
84	199
85	86
85	87
85	89
85	90
85	91
85	92
85	93
85	94
85	95
85	96
85	97
85	98
85	100
85	101
85	103
85	105
85	106
85	107
85	108
85	109
85	110
85	111
85	112
85	113
85	115
85	116
85	117
85	119
85	120
85	121
85	122
85	123
85	124
85	126
85	129
85	131
85	133
85	134
85	135
85	136
85	139
85	141
85	143
85	144
85	145
85	146
85	147
85	149
85	151
85	153
85	154
85	155
85	156
85	157
85	158
85	159
85	160
85	162
85	163
85	164
85	165
85	167
85	168
85	173
85	174
85	175
85	176
85	179
85	180
85	181
85	182
85	183
85	185
85	186
85	188
85	193
85	194
85	195
85	197
86	87
86	90
86	91
86	92
86	93
86	94
86	96
86	98
86	99
86	100
86	102
86	103
86	104
86	105
86	107
86	108
86	109
86	110
86	113
86	115
86	116
86	118
86	119
86	121
86	122
86	124
86	125
86	127
86	129
86	130
86	132
86	133
86	134
86	135
86	136
86	139
86	140
86	142
86	143
86	144
86	145
86	146
86	147
86	148
86	149
86	150
86	155
86	158
86	160
86	163
86	164
86	165
86	167
86	168
86	171
86	173
86	174
86	175
86	176
86	177
86	178
86	180
86	181
86	183
86	184
86	185
86	186
86	187
86	188
86	191
86	192
86	194
86	195
86	197
86	198
87	88
87	89
87	90
87	93
87	95
87	96
87	97
87	98
87	99
87	101
87	102
87	103
87	105
87	106
87	107
87	108
87	109
87	110
87	111
87	113
87	114
87	115
87	116
87	118
87	120
87	122
87	123
87	124
87	125
87	126
87	127
87	128
87	129
87	130
87	131
87	132
87	133
87	134
87	135
87	137
87	138
87	139
87	140
87	142
87	143
87	144
87	147
87	148
87	149
87	150
87	153
87	155
87	157
87	158
87	160
87	161
87	163
87	164
87	165
87	166
87	167
87	168
87	170
87	174
87	176
87	178
87	180
87	182
87	183
87	185
87	186
87	187
87	190
87	191
87	192
87	193
87	194
87	195
87	196
87	197
87	198
87	199
88	89
88	90
88	92
88	93
88	95
88	98
88	100
88	101
88	102
88	103
88	104
88	105
88	110
88	111
88	113
88	114
88	115
88	117
88	118
88	120
88	121
88	122
88	124
88	125
88	127
88	128
88	129
88	130
88	134
88	141
88	142
88	143
88	144
88	145
88	147
88	149
88	150
88	151
88	152
88	154
88	155
88	156
88	157
88	161
88	162
88	163
88	164
88	166
88	167
88	169
88	170
88	171
88	172
88	173
88	174
88	175
88	178
88	180
88	181
88	182
88	184
88	185
88	186
88	187
88	190
88	191
88	192
88	193
88	194
88	195
88	197
88	198
88	199
89	91
89	92
89	93
89	95
89	96
89	97
89	98
89	99
89	100
89	101
89	102
89	103
89	108
89	111
89	112
89	114
89	115
89	116
89	117
89	119
89	121
89	123
89	125
89	126
89	127
89	128
89	129
89	130
89	132
89	134
89	135
89	137
89	138
89	139
89	141
89	142
89	143
89	144
89	145
89	146
89	147
89	149
89	151
89	152
89	155
89	156
89	160
89	161
89	162
89	164
89	166
89	167
89	168
89	169
89	170
89	171
89	174
89	176
89	177
89	178
89	179
89	182
89	183
89	186
89	187
89	188
89	189
89	190
89	192
89	194
89	195
89	198
90	91
90	94
90	96
90	98
90	100
90	103
90	105
90	107
90	108
90	109
90	110
90	111
90	112
90	113
90	114
90	115
90	117
90	118
90	119
90	120
90	123
90	126
90	129
90	132
90	133
90	135
90	137
90	138
90	139
90	143
90	146
90	149
90	150
90	151
90	152
90	153
90	154
90	155
90	156
90	158
90	159
90	160
90	161
90	163
90	167
90	168
90	169
90	171
90	172
90	173
90	174
90	175
90	176
90	177
90	178
90	179
90	181
90	183
90	185
90	186
90	187
90	188
90	190
90	191
90	192
90	193
90	194
90	197
90	198
90	199
91	92
91	93
91	96
91	97
91	98
91	99
91	101
91	104
91	105
91	106
91	107
91	108
91	109
91	110
91	111
91	112
91	113
91	115
91	116
91	117
91	118
91	119
91	120
91	123
91	124
91	125
91	126
91	127
91	128
91	129
91	132
91	134
91	135
91	136
91	138
91	139
91	140
91	141
91	142
91	143
91	145
91	146
91	147
91	148
91	149
91	151
91	152
91	153
91	154
91	155
91	156
91	157
91	159
91	162
91	163
91	164
91	165
91	166
91	168
91	170
91	172
91	173
91	174
91	175
91	176
91	177
91	178
91	181
91	182
91	183
91	184
91	185
91	186
91	187
91	188
91	189
91	190
91	191
91	192
91	194
91	196
91	197
92	94
92	95
92	96
92	97
92	98
92	99
92	100
92	101
92	102
92	103
92	104
92	105
92	106
92	107
92	108
92	109
92	110
92	111
92	113
92	114
92	117
92	118
92	119
92	120
92	121
92	122
92	123
92	124
92	125
92	126
92	127
92	128
92	129
92	131
92	133
92	134
92	135
92	136
92	137
92	139
92	140
92	142
92	143
92	144
92	147
92	148
92	149
92	150
92	153
92	154
92	155
92	156
92	157
92	158
92	161
92	162
92	163
92	164
92	167
92	168
92	169
92	170
92	172
92	175
92	177
92	178
92	179
92	181
92	182
92	183
92	184
92	185
92	188
92	189
92	194
92	195
92	197
92	199
93	95
93	96
93	97
93	98
93	101
93	102
93	103
93	104
93	105
93	107
93	108
93	109
93	110
93	113
93	114
93	116
93	117
93	119
93	121
93	125
93	126
93	129
93	130
93	131
93	132
93	133
93	136
93	138
93	139
93	141
93	142
93	146
93	148
93	149
93	150
93	151
93	153
93	155
93	158
93	159
93	160
93	161
93	164
93	167
93	168
93	169
93	170
93	171
93	172
93	174
93	175
93	178
93	180
93	181
93	182
93	183
93	187
93	189
93	191
93	192
93	195
93	196
93	198
93	199
94	95
94	96
94	97
94	98
94	99
94	101
94	102
94	104
94	105
94	106
94	107
94	108
94	109
94	112
94	113
94	114
94	116
94	117
94	118
94	120
94	122
94	123
94	124
94	126
94	127
94	128
94	129
94	131
94	132
94	133
94	134
94	135
94	136
94	137
94	138
94	139
94	140
94	141
94	144
94	145
94	147
94	148
94	149
94	150
94	151
94	153
94	155
94	157
94	159
94	160
94	163
94	165
94	166
94	169
94	171
94	172
94	176
94	178
94	179
94	182
94	184
94	185
94	187
94	188
94	189
94	190
94	191
94	192
94	193
94	194
94	195
94	196
94	198
94	199
95	96
95	98
95	99
95	101
95	102
95	103
95	104
95	105
95	106
95	107
95	108
95	109
95	111
95	112
95	114
95	115
95	116
95	117
95	118
95	120
95	121
95	122
95	123
95	124
95	125
95	126
95	127
95	129
95	130
95	133
95	135
95	136
95	137
95	138
95	139
95	140
95	141
95	142
95	144
95	146
95	147
95	148
95	150
95	151
95	153
95	154
95	155
95	156
95	157
95	158
95	159
95	160
95	161
95	162
95	163
95	165
95	166
95	167
95	170
95	174
95	175
95	180
95	181
95	182
95	183
95	185
95	186
95	187
95	188
95	189
95	190
95	191
95	192
95	193
95	195
95	197
95	198
95	199
96	97
96	99
96	100
96	101
96	102
96	103
96	104
96	107
96	108
96	109
96	110
96	112
96	113
96	114
96	115
96	117
96	119
96	120
96	121
96	122
96	123
96	124
96	127
96	129
96	130
96	132
96	135
96	138
96	139
96	140
96	141
96	143
96	144
96	145
96	147
96	148
96	152
96	153
96	154
96	155
96	156
96	157
96	161
96	162
96	164
96	165
96	166
96	167
96	168
96	169
96	170
96	171
96	172
96	173
96	176
96	177
96	178
96	179
96	180
96	181
96	182
96	183
96	184
96	185
96	186
96	187
96	189
96	190
96	191
96	192
96	193
96	194
96	197
96	198
96	199
97	98
97	99
97	102
97	103
97	104
97	105
97	106
97	107
97	109
97	112
97	113
97	114
97	115
97	117
97	118
97	119
97	120
97	125
97	126
97	129
97	130
97	133
97	134
97	135
97	138
97	139
97	140
97	141
97	142
97	143
97	144
97	146
97	147
97	151
97	153
97	154
97	155
97	156
97	158
97	160
97	163
97	164
97	165
97	166
97	167
97	169
97	171
97	173
97	174
97	175
97	176
97	177
97	178
97	179
97	181
97	182
97	186
97	188
97	192
97	193
97	197
97	198
98	100
98	101
98	102
98	103
98	104
98	106
98	108
98	109
98	111
98	113
98	114
98	118
98	119
98	121
98	122
98	123
98	125
98	126
98	127
98	128
98	129
98	130
98	131
98	132
98	136
98	137
98	138
98	139
98	140
98	141
98	143
98	145
98	146
98	147
98	150
98	151
98	152
98	153
98	155
98	156
98	157
98	158
98	160
98	161
98	162
98	163
98	165
98	166
98	167
98	168
98	169
98	170
98	172
98	174
98	178
98	180
98	181
98	182
98	183
98	185
98	186
98	187
98	190
98	192
98	194
98	195
98	196
98	197
98	198
98	199
99	101
99	102
99	104
99	105
99	107
99	108
99	109
99	110
99	112
99	114
99	115
99	116
99	117
99	119
99	121
99	122
99	124
99	125
99	126
99	127
99	129
99	130
99	131
99	132
99	133
99	134
99	135
99	137
99	139
99	140
99	141
99	143
99	144
99	145
99	146
99	147
99	148
99	149
99	151
99	152
99	153
99	154
99	155
99	156
99	157
99	158
99	159
99	164
99	165
99	166
99	167
99	168
99	169
99	170
99	171
99	172
99	173
99	174
99	175
99	176
99	177
99	178
99	180
99	181
99	182
99	183
99	184
99	185
99	186
99	190
99	191
99	192
99	193
99	194
99	198
100	102
100	103
100	104
100	106
100	108
100	109
100	111
100	112
100	113
100	114
100	116
100	117
100	118
100	119
100	122
100	123
100	124
100	125
100	126
100	127
100	128
100	131
100	133
100	135
100	136
100	138
100	139
100	141
100	142
100	143
100	144
100	145
100	146
100	147
100	149
100	152
100	153
100	154
100	155
100	157
100	158
100	159
100	160
100	162
100	163
100	164
100	165
100	166
100	167
100	170
100	173
100	175
100	177
100	179
100	180
100	181
100	182
100	183
100	186
100	187
100	188
100	189
100	191
100	192
100	193
100	194
100	195
100	196
100	199
101	102
101	103
101	104
101	105
101	106
101	108
101	109
101	111
101	113
101	115
101	119
101	120
101	121
101	122
101	123
101	126
101	128
101	130
101	131
101	132
101	133
101	134
101	135
101	136
101	137
101	138
101	139
101	141
101	142
101	143
101	144
101	145
101	146
101	147
101	148
101	149
101	150
101	153
101	154
101	155
101	156
101	157
101	158
101	159
101	160
101	161
101	164
101	165
101	167
101	168
101	169
101	170
101	172
101	174
101	175
101	176
101	178
101	180
101	181
101	183
101	187
101	188
101	189
101	190
101	191
101	193
101	195
101	198
102	104
102	105
102	106
102	107
102	110
102	113
102	114
102	115
102	118
102	121
102	122
102	123
102	125
102	126
102	127
102	128
102	129
102	130
102	131
102	132
102	133
102	134
102	135
102	137
102	138
102	139
102	140
102	142
102	145
102	146
102	147
102	149
102	150
102	154
102	156
102	157
102	158
102	160
102	161
102	162
102	163
102	164
102	165
102	166
102	167
102	169
102	173
102	175
102	177
102	178
102	179
102	181
102	182
102	184
102	185
102	187
102	188
102	189
102	190
102	192
102	193
102	195
102	197
102	198
102	199
103	104
103	105
103	106
103	107
103	108
103	109
103	112
103	114
103	115
103	116
103	118
103	119
103	120
103	121
103	122
103	123
103	124
103	125
103	126
103	129
103	131
103	133
103	135
103	136
103	137
103	138
103	140
103	141
103	142
103	143
103	144
103	149
103	150
103	151
103	152
103	153
103	155
103	157
103	158
103	159
103	160
103	161
103	162
103	163
103	164
103	166
103	167
103	168
103	171
103	172
103	173
103	174
103	175
103	176
103	178
103	180
103	181
103	182
103	183
103	184
103	185
103	187
103	188
103	192
103	195
103	197
103	198
103	199
104	105
104	106
104	107
104	108
104	109
104	110
104	111
104	112
104	113
104	115
104	116
104	117
104	118
104	119
104	120
104	121
104	122
104	123
104	124
104	125
104	126
104	127
104	128
104	130
104	132
104	133
104	134
104	135
104	136
104	137
104	140
104	141
104	142
104	144
104	145
104	148
104	149
104	150
104	152
104	154
104	156
104	157
104	158
104	159
104	160
104	161
104	162
104	165
104	166
104	167
104	169
104	170
104	171
104	172
104	173
104	174
104	175
104	176
104	179
104	180
104	181
104	182
104	183
104	184
104	185
104	186
104	187
104	190
104	191
104	192
104	193
104	195
104	196
104	197
104	198
105	107
105	108
105	109
105	110
105	111
105	112
105	113
105	114
105	115
105	116
105	117
105	118
105	119
105	121
105	123
105	124
105	125
105	126
105	128
105	129
105	130
105	131
105	132
105	133
105	134
105	136
105	139
105	140
105	141
105	143
105	144
105	147
105	148
105	149
105	151
105	152
105	154
105	155
105	156
105	159
105	160
105	161
105	163
105	166
105	167
105	168
105	169
105	172
105	173
105	174
105	176
105	177
105	178
105	181
105	182
105	183
105	186
105	187
105	188
105	189
105	190
105	191
105	192
105	193
105	194
105	195
105	196
105	197
105	198
106	107
106	108
106	109
106	110
106	112
106	114
106	115
106	116
106	117
106	118
106	119
106	120
106	121
106	122
106	123
106	124
106	125
106	126
106	127
106	128
106	129
106	130
106	131
106	132
106	133
106	136
106	138
106	140
106	141
106	143
106	144
106	145
106	148
106	149
106	150
106	153
106	157
106	158
106	159
106	161
106	163
106	164
106	166
106	167
106	168
106	169
106	170
106	171
106	172
106	173
106	174
106	175
106	176
106	177
106	178
106	181
106	182
106	183
106	185
106	186
106	189
106	192
106	195
106	197
106	198
106	199
107	108
107	110
107	113
107	114
107	115
107	119
107	120
107	121
107	122
107	123
107	125
107	126
107	127
107	128
107	129
107	130
107	131
107	133
107	134
107	136
107	137
107	138
107	139
107	140
107	141
107	143
107	145
107	146
107	147
107	148
107	149
107	150
107	151
107	152
107	153
107	154
107	155
107	157
107	158
107	160
107	161
107	163
107	165
107	166
107	167
107	169
107	170
107	171
107	173
107	174
107	177
107	178
107	179
107	180
107	182
107	184
107	186
107	187
107	188
107	189
107	190
107	191
107	193
107	196
107	198
108	109
108	110
108	111
108	112
108	116
108	118
108	119
108	120
108	121
108	122
108	123
108	124
108	125
108	126
108	127
108	128
108	129
108	130
108	133
108	134
108	137
108	139
108	140
108	141
108	143
108	145
108	146
108	147
108	148
108	149
108	150
108	151
108	152
108	153
108	156
108	157
108	158
108	160
108	161
108	162
108	163
108	165
108	166
108	167
108	168
108	169
108	170
108	171
108	172
108	175
108	176
108	177
108	178
108	180
108	181
108	182
108	183
108	184
108	185
108	186
108	187
108	188
108	191
108	193
108	194
108	195
108	199
109	112
109	113
109	115
109	116
109	117
109	118
109	122
109	123
109	124
109	126
109	130
109	133
109	134
109	135
109	136
109	137
109	138
109	139
109	140
109	141
109	142
109	144
109	145
109	146
109	147
109	148
109	150
109	151
109	152
109	153
109	155
109	156
109	157
109	160
109	161
109	164
109	165
109	166
109	167
109	168
109	172
109	173
109	175
109	179
109	181
109	183
109	184
109	185
109	186
109	187
109	188
109	189
109	190
109	191
109	192
109	193
109	194
109	196
109	197
109	198
110	111
110	113
110	114
110	115
110	116
110	119
110	120
110	121
110	122
110	123
110	124
110	125
110	127
110	128
110	129
110	130
110	134
110	135
110	136
110	137
110	139
110	140
110	141
110	142
110	144
110	147
110	148
110	151
110	152
110	155
110	156
110	158
110	160
110	162
110	163
110	164
110	166
110	167
110	169
110	170
110	171
110	172
110	173
110	175
110	176
110	178
110	182
110	187
110	188
110	189
110	192
110	193
110	195
110	196
110	197
110	198
110	199
111	112
111	114
111	116
111	117
111	118
111	119
111	120
111	122
111	123
111	125
111	127
111	128
111	130
111	131
111	132
111	133
111	135
111	136
111	138
111	139
111	140
111	141
111	142
111	143
111	144
111	145
111	146
111	147
111	149
111	150
111	151
111	152
111	153
111	154
111	157
111	158
111	159
111	160
111	162
111	164
111	165
111	166
111	167
111	169
111	170
111	171
111	172
111	173
111	174
111	175
111	176
111	177
111	180
111	181
111	182
111	183
111	184
111	186
111	187
111	188
111	189
111	191
111	192
111	194
111	195
111	197
112	114
112	116
112	117
112	118
112	119
112	120
112	123
112	124
112	127
112	128
112	129
112	131
112	133
112	135
112	136
112	138
112	139
112	141
112	143
112	145
112	146
112	147
112	149
112	150
112	151
112	153
112	158
112	159
112	160
112	161
112	163
112	165
112	166
112	168
112	169
112	170
112	171
112	172
112	175
112	176
112	177
112	178
112	180
112	181
112	182
112	183
112	184
112	185
112	186
112	187
112	188
112	189
112	190
112	191
112	194
112	195
112	196
112	197
112	198
113	114
113	115
113	117
113	118
113	120
113	121
113	122
113	124
113	125
113	126
113	128
113	129
113	131
113	132
113	134
113	135
113	136
113	137
113	138
113	142
113	143
113	144
113	145
113	147
113	148
113	149
113	150
113	151
113	152
113	153
113	154
113	155
113	157
113	158
113	159
113	160
113	161
113	162
113	163
113	164
113	165
113	167
113	168
113	169
113	170
113	171
113	172
113	173
113	174
113	176
113	177
113	178
113	179
113	180
113	182
113	183
113	184
113	185
113	186
113	187
113	188
113	189
113	190
113	192
113	193
113	194
113	195
113	196
113	199
114	115
114	116
114	117
114	122
114	123
114	124
114	125
114	127
114	129
114	131
114	133
114	134
114	135
114	136
114	137
114	139
114	140
114	141
114	142
114	143
114	144
114	145
114	146
114	147
114	148
114	149
114	150
114	151
114	152
114	153
114	155
114	156
114	157
114	159
114	160
114	161
114	162
114	164
114	169
114	170
114	171
114	173
114	174
114	175
114	179
114	180
114	181
114	182
114	183
114	186
114	187
114	188
114	189
114	190
114	191
114	194
114	195
114	196
114	197
114	198
114	199
115	118
115	120
115	123
115	124
115	126
115	127
115	129
115	132
115	133
115	135
115	136
115	137
115	138
115	139
115	141
115	143
115	144
115	145
115	147
115	149
115	150
115	151
115	152
115	153
115	155
115	161
115	162
115	163
115	165
115	166
115	167
115	168
115	170
115	171
115	172
115	174
115	176
115	177
115	178
115	179
115	181
115	182
115	183
115	184
115	185
115	186
115	187
115	189
115	190
115	196
115	197
115	198
115	199
116	117
116	118
116	119
116	120
116	121
116	123
116	124
116	125
116	126
116	129
116	130
116	131
116	132
116	133
116	135
116	137
116	140
116	141
116	142
116	144
116	145
116	146
116	148
116	149
116	150
116	152
116	155
116	156
116	157
116	158
116	161
116	162
116	164
116	165
116	166
116	167
116	168
116	169
116	170
116	171
116	172
116	173
116	174
116	175
116	177
116	179
116	180
116	181
116	183
116	184
116	186
116	187
116	188
116	189
116	190
116	192
116	193
116	194
116	196
116	198
117	118
117	119
117	120
117	121
117	123
117	125
117	126
117	127
117	132
117	134
117	135
117	138
117	139
117	140
117	142
117	143
117	145
117	146
117	147
117	148
117	149
117	150
117	151
117	153
117	155
117	157
117	158
117	162
117	165
117	166
117	167
117	168
117	169
117	170
117	171
117	172
117	173
117	174
117	175
117	176
117	178
117	179
117	181
117	182
117	185
117	186
117	188
117	189
117	191
117	192
117	193
117	194
117	195
117	196
117	198
117	199
118	119
118	120
118	121
118	123
118	125
118	126
118	127
118	128
118	130
118	131
118	132
118	133
118	135
118	136
118	138
118	140
118	141
118	142
118	144
118	145
118	146
118	147
118	148
118	149
118	150
118	151
118	152
118	153
118	154
118	155
118	156
118	157
118	158
118	164
118	166
118	167
118	168
118	169
118	170
118	171
118	172
118	173
118	174
118	176
118	178
118	183
118	184
118	185
118	186
118	188
118	190
118	191
118	193
118	194
118	196
118	197
118	198
119	120
119	121
119	122
119	123
119	125
119	126
119	127
119	128
119	129
119	131
119	132
119	134
119	135
119	136
119	137
119	138
119	140
119	141
119	143
119	145
119	146
119	147
119	149
119	151
119	152
119	154
119	155
119	156
119	157
119	158
119	159
119	161
119	162
119	165
119	166
119	167
119	168
119	169
119	171
119	179
119	180
119	181
119	182
119	184
119	188
119	190
119	191
119	194
119	196
119	197
120	123
120	125
120	126
120	127
120	128
120	130
120	132
120	133
120	134
120	135
120	137
120	142
120	143
120	145
120	146
120	147
120	149
120	150
120	151
120	152
120	153
120	155
120	156
120	157
120	161
120	162
120	163
120	164
120	166
120	167
120	168
120	169
120	170
120	172
120	173
120	175
120	176
120	177
120	179
120	180
120	181
120	184
120	189
120	190
120	192
120	193
120	194
120	195
120	197
120	198
120	199
121	122
121	123
121	125
121	127
121	128
121	129
121	130
121	131
121	133
121	134
121	136
121	137
121	139
121	140
121	141
121	142
121	144
121	145
121	146
121	148
121	149
121	152
121	153
121	154
121	157
121	158
121	159
121	160
121	161
121	162
121	163
121	164
121	166
121	168
121	169
121	171
121	172
121	173
121	174
121	175
121	177
121	178
121	179
121	184
121	185
121	186
121	187
121	188
121	189
121	190
121	191
121	194
121	195
121	196
122	123
122	125
122	126
122	127
122	128
122	130
122	133
122	134
122	136
122	137
122	138
122	139
122	140
122	141
122	143
122	144
122	145
122	146
122	147
122	149
122	150
122	152
122	153
122	156
122	157
122	158
122	160
122	161
122	163
122	164
122	165
122	167
122	170
122	172
122	174
122	176
122	177
122	178
122	181
122	184
122	185
122	187
122	189
122	190
122	191
122	192
122	194
122	196
122	197
122	198
122	199
123	124
123	125
123	126
123	127
123	128
123	129
123	130
123	131
123	133
123	134
123	135
123	136
123	137
123	138
123	139
123	141
123	144
123	146
123	149
123	152
123	153
123	154
123	157
123	158
123	159
123	160
123	161
123	163
123	164
123	165
123	166
123	167
123	168
123	170
123	171
123	172
123	174
123	175
123	177
123	178
123	179
123	180
123	181
123	182
123	183
123	184
123	185
123	186
123	187
123	188
123	189
123	190
123	193
123	196
123	197
123	198
123	199
124	125
124	126
124	127
124	128
124	129
124	131
124	132
124	133
124	134
124	135
124	136
124	137
124	138
124	140
124	141
124	143
124	144
124	145
124	146
124	149
124	152
124	153
124	154
124	155
124	156
124	157
124	158
124	163
124	165
124	166
124	167
124	168
124	169
124	170
124	171
124	172
124	173
124	174
124	175
124	176
124	177
124	178
124	179
124	180
124	182
124	183
124	184
124	186
124	188
124	189
124	191
124	192
124	193
124	194
124	195
124	196
124	197
124	198
124	199
125	126
125	128
125	130
125	131
125	132
125	135
125	136
125	137
125	138
125	140
125	141
125	142
125	144
125	145
125	146
125	148
125	149
125	150
125	152
125	153
125	157
125	158
125	160
125	162
125	163
125	165
125	166
125	167
125	168
125	170
125	171
125	172
125	174
125	175
125	176
125	177
125	179
125	180
125	181
125	182
125	184
125	185
125	189
125	191
125	192
125	193
125	196
125	197
125	198
125	199
126	127
126	128
126	129
126	130
126	131
126	132
126	133
126	134
126	136
126	138
126	139
126	140
126	141
126	143
126	145
126	146
126	147
126	148
126	149
126	150
126	151
126	152
126	153
126	154
126	156
126	157
126	159
126	160
126	162
126	164
126	167
126	171
126	172
126	174
126	175
126	176
126	177
126	178
126	179
126	181
126	182
126	183
126	184
126	185
126	187
126	191
126	192
126	193
126	194
126	195
126	196
126	199
127	130
127	132
127	137
127	138
127	141
127	144
127	146
127	147
127	148
127	149
127	150
127	151
127	152
127	153
127	155
127	157
127	160
127	162
127	163
127	165
127	169
127	170
127	171
127	172
127	173
127	174
127	175
127	176
127	177
127	178
127	180
127	181
127	182
127	183
127	184
127	186
127	187
127	188
127	189
127	190
127	196
127	198
127	199
128	129
128	131
128	132
128	133
128	134
128	136
128	137
128	138
128	139
128	141
128	142
128	143
128	145
128	147
128	150
128	153
128	155
128	156
128	157
128	159
128	160
128	162
128	163
128	164
128	165
128	166
128	168
128	169
128	170
128	171
128	176
128	177
128	178
128	179
128	180
128	184
128	185
128	186
128	187
128	188
128	189
128	190
128	191
128	192
128	193
128	195
128	196
128	198
128	199
129	130
129	131
129	132
129	133
129	134
129	135
129	137
129	138
129	139
129	140
129	142
129	143
129	146
129	147
129	148
129	150
129	151
129	153
129	155
129	157
129	158
129	159
129	160
129	162
129	163
129	164
129	167
129	168
129	169
129	170
129	171
129	172
129	173
129	175
129	176
129	177
129	178
129	179
129	180
129	183
129	184
129	187
129	189
129	190
129	191
129	192
129	193
129	195
129	198
130	131
130	132
130	133
130	134
130	135
130	136
130	137
130	139
130	140
130	141
130	142
130	143
130	144
130	145
130	147
130	148
130	149
130	150
130	153
130	154
130	156
130	158
130	159
130	160
130	161
130	162
130	163
130	164
130	165
130	166
130	169
130	170
130	171
130	172
130	175
130	176
130	178
130	181
130	184
130	186
130	187
130	190
130	191
130	192
130	194
130	196
130	198
130	199
131	135
131	136
131	140
131	141
131	143
131	145
131	146
131	148
131	149
131	150
131	151
131	152
131	153
131	154
131	156
131	157
131	159
131	161
131	163
131	164
131	166
131	167
131	169
131	170
131	171
131	172
131	173
131	175
131	177
131	178
131	179
131	180
131	181
131	182
131	183
131	186
131	188
131	190
131	192
131	193
131	194
131	195
131	196
132	134
132	135
132	136
132	138
132	139
132	140
132	141
132	142
132	146
132	147
132	148
132	149
132	150
132	151
132	152
132	155
132	156
132	157
132	159
132	160
132	162
132	163
132	164
132	165
132	166
132	168
132	169
132	173
132	175
132	176
132	177
132	178
132	180
132	181
132	182
132	183
132	184
132	185
132	186
132	187
132	188
132	189
132	192
132	193
132	194
132	195
132	196
132	198
133	134
133	135
133	137
133	138
133	139
133	142
133	143
133	145
133	147
133	148
133	149
133	150
133	152
133	154
133	157
133	159
133	160
133	161
133	162
133	163
133	164
133	167
133	168
133	169
133	170
133	171
133	172
133	173
133	174
133	175
133	176
133	177
133	178
133	179
133	181
133	182
133	183
133	184
133	185
133	186
133	190
133	192
133	193
133	194
133	196
133	197
133	199
134	136
134	137
134	138
134	141
134	142
134	143
134	144
134	145
134	146
134	147
134	148
134	149
134	150
134	152
134	153
134	155
134	156
134	159
134	160
134	161
134	163
134	164
134	165
134	166
134	167
134	168
134	171
134	172
134	173
134	175
134	176
134	177
134	180
134	184
134	185
134	186
134	187
134	188
134	191
134	192
134	193
134	194
134	195
134	197
134	198
134	199
135	136
135	141
135	142
135	143
135	145
135	146
135	147
135	148
135	149
135	150
135	151
135	153
135	154
135	155
135	157
135	159
135	160
135	161
135	162
135	164
135	166
135	167
135	168
135	169
135	171
135	172
135	173
135	174
135	175
135	176
135	177
135	182
135	185
135	186
135	189
135	190
135	191
135	192
135	195
135	196
135	197
135	198
135	199
136	137
136	138
136	140
136	142
136	143
136	144
136	145
136	147
136	148
136	149
136	150
136	151
136	152
136	154
136	155
136	157
136	158
136	160
136	161
136	162
136	163
136	165
136	167
136	168
136	169
136	170
136	171
136	172
136	173
136	174
136	176
136	177
136	179
136	180
136	181
136	182
136	183
136	187
136	188
136	189
136	190
136	191
136	193
136	194
136	197
136	198
136	199
137	138
137	139
137	140
137	142
137	143
137	144
137	146
137	147
137	148
137	150
137	151
137	152
137	153
137	154
137	155
137	156
137	163
137	164
137	165
137	166
137	167
137	170
137	171
137	172
137	175
137	177
137	178
137	180
137	181
137	182
137	183
137	187
137	192
137	194
137	195
137	196
137	197
137	199
138	139
138	140
138	143
138	144
138	148
138	150
138	152
138	153
138	154
138	156
138	159
138	161
138	163
138	164
138	165
138	166
138	169
138	170
138	171
138	172
138	174
138	176
138	177
138	179
138	180
138	183
138	184
138	185
138	186
138	188
138	190
138	191
138	192
138	193
138	195
138	196
138	199
139	140
139	142
139	143
139	144
139	145
139	146
139	147
139	149
139	150
139	151
139	153
139	154
139	155
139	156
139	157
139	158
139	160
139	161
139	162
139	165
139	167
139	170
139	171
139	173
139	175
139	177
139	178
139	180
139	182
139	183
139	184
139	185
139	186
139	187
139	190
139	191
139	192
139	193
139	195
139	196
139	198
139	199
140	141
140	142
140	144
140	150
140	151
140	152
140	153
140	154
140	155
140	156
140	158
140	161
140	162
140	165
140	167
140	169
140	170
140	171
140	172
140	174
140	175
140	177
140	178
140	179
140	181
140	182
140	183
140	186
140	187
140	190
140	191
140	192
140	194
140	195
140	197
140	198
140	199
141	142
141	144
141	146
141	147
141	148
141	149
141	150
141	151
141	153
141	155
141	156
141	159
141	160
141	162
141	163
141	164
141	165
141	166
141	168
141	169
141	171
141	173
141	174
141	176
141	177
141	178
141	179
141	180
141	181
141	183
141	185
141	186
141	187
141	188
141	189
141	191
141	192
141	193
141	194
141	195
141	196
141	197
141	198
142	143
142	144
142	145
142	146
142	150
142	151
142	154
142	155
142	156
142	158
142	159
142	160
142	161
142	162
142	164
142	165
142	166
142	168
142	169
142	170
142	171
142	173
142	175
142	178
142	179
142	180
142	181
142	182
142	183
142	185
142	186
142	187
142	188
142	189
142	190
142	191
142	193
142	194
142	195
142	196
142	197
142	199
143	145
143	146
143	148
143	151
143	155
143	156
143	157
143	158
143	159
143	160
143	161
143	162
143	164
143	165
143	166
143	167
143	168
143	169
143	170
143	173
143	174
143	175
143	177
143	178
143	179
143	180
143	181
143	183
143	184
143	185
143	187
143	188
143	192
143	193
143	194
143	195
143	196
143	199
144	145
144	146
144	149
144	150
144	151
144	153
144	154
144	155
144	156
144	157
144	158
144	161
144	163
144	166
144	167
144	169
144	170
144	171
144	172
144	174
144	175
144	176
144	178
144	179
144	181
144	184
144	186
144	187
144	188
144	189
144	190
144	193
144	194
144	195
144	197
144	198
144	199
145	147
145	148
145	149
145	150
145	151
145	152
145	153
145	154
145	155
145	156
145	157
145	159
145	160
145	161
145	162
145	163
145	164
145	165
145	168
145	171
145	172
145	173
145	174
145	175
145	176
145	177
145	178
145	179
145	180
145	181
145	182
145	186
145	187
145	188
145	189
145	192
145	193
145	194
145	195
145	196
145	197
145	199
146	147
146	151
146	152
146	153
146	156
146	157
146	158
146	159
146	160
146	161
146	163
146	164
146	165
146	167
146	168
146	171
146	172
146	177
146	178
146	182
146	183
146	184
146	186
146	188
146	189
146	191
146	192
146	194
146	195
146	196
147	148
147	149
147	150
147	152
147	153
147	155
147	156
147	158
147	159
147	161
147	162
147	163
147	164
147	165
147	166
147	167
147	168
147	170
147	171
147	173
147	174
147	175
147	177
147	178
147	179
147	180
147	181
147	182
147	183
147	185
147	186
147	188
147	190
147	192
147	193
147	194
147	195
147	196
147	197
147	199
148	149
148	151
148	152
148	155
148	158
148	159
148	160
148	161
148	162
148	166
148	169
148	172
148	173
148	175
148	176
148	177
148	178
148	180
148	182
148	183
148	185
148	188
148	189
148	190
148	192
148	194
148	195
148	197
148	198
148	199
149	150
149	151
149	152
149	153
149	155
149	157
149	158
149	160
149	161
149	163
149	164
149	167
149	168
149	169
149	172
149	173
149	175
149	177
149	178
149	179
149	180
149	182
149	183
149	184
149	185
149	188
149	189
149	192
149	193
149	194
149	195
149	196
149	197
149	198
149	199
150	151
150	152
150	154
150	156
150	157
150	158
150	159
150	160
150	162
150	164
150	167
150	171
150	172
150	173
150	175
150	176
150	177
150	178
150	179
150	181
150	182
150	183
150	184
150	186
150	187
150	188
150	189
150	190
150	191
150	192
150	193
150	194
150	195
150	196
150	197
150	199
151	153
151	154
151	155
151	156
151	157
151	158
151	159
151	160
151	162
151	163
151	164
151	166
151	168
151	169
151	172
151	173
151	174
151	175
151	177
151	178
151	179
151	180
151	181
151	182
151	183
151	184
151	185
151	186
151	188
151	191
151	193
151	194
151	195
151	196
152	153
152	155
152	156
152	157
152	159
152	160
152	162
152	163
152	165
152	168
152	170
152	172
152	173
152	175
152	177
152	180
152	183
152	184
152	186
152	188
152	190
152	191
152	192
152	193
152	195
152	196
152	198
152	199
153	156
153	157
153	158
153	162
153	163
153	165
153	166
153	168
153	169
153	171
153	172
153	173
153	174
153	175
153	176
153	177
153	179
153	180
153	182
153	184
153	185
153	187
153	188
153	190
153	191
153	193
153	194
153	195
153	198
154	155
154	156
154	158
154	159
154	163
154	164
154	165
154	167
154	168
154	170
154	171
154	172
154	175
154	178
154	179
154	180
154	183
154	184
154	185
154	186
154	187
154	188
154	189
154	191
154	192
154	194
154	195
154	196
154	197
154	198
154	199
155	156
155	157
155	158
155	159
155	160
155	162
155	163
155	165
155	166
155	167
155	168
155	170
155	171
155	172
155	173
155	178
155	179
155	180
155	181
155	182
155	186
155	188
155	189
155	190
155	191
155	192
155	193
155	194
155	195
155	197
155	198
156	157
156	158
156	159
156	162
156	164
156	166
156	167
156	168
156	169
156	170
156	171
156	173
156	174
156	175
156	176
156	177
156	178
156	182
156	183
156	184
156	186
156	187
156	188
156	191
156	192
156	194
156	195
156	196
156	197
156	198
156	199
157	158
157	159
157	160
157	161
157	163
157	164
157	165
157	166
157	167
157	168
157	169
157	170
157	171
157	172
157	174
157	175
157	176
157	177
157	178
157	179
157	180
157	182
157	183
157	186
157	187
157	191
157	192
157	194
157	196
157	198
157	199
158	160
158	163
158	165
158	167
158	169
158	170
158	172
158	173
158	175
158	176
158	178
158	179
158	180
158	182
158	183
158	184
158	186
158	187
158	188
158	191
158	192
158	193
158	195
158	196
158	198
158	199
159	160
159	161
159	164
159	166
159	167
159	168
159	170
159	171
159	173
159	174
159	175
159	176
159	178
159	179
159	182
159	183
159	184
159	189
159	191
159	194
159	195
159	196
159	197
159	198
159	199
160	161
160	163
160	164
160	165
160	167
160	169
160	170
160	171
160	172
160	174
160	175
160	176
160	177
160	178
160	179
160	180
160	181
160	182
160	183
160	185
160	186
160	187
160	190
160	192
160	193
160	194
160	195
160	198
161	162
161	163
161	164
161	166
161	167
161	168
161	170
161	171
161	173
161	174
161	175
161	178
161	179
161	183
161	185
161	186
161	188
161	189
161	191
161	192
161	193
161	194
161	195
161	196
161	197
162	163
162	165
162	166
162	167
162	168
162	169
162	170
162	171
162	172
162	173
162	175
162	176
162	177
162	179
162	180
162	184
162	185
162	187
162	188
162	189
162	190
162	191
162	192
162	193
162	195
162	196
162	198
163	164
163	165
163	167
163	170
163	171
163	172
163	173
163	174
163	175
163	177
163	178
163	179
163	180
163	181
163	185
163	186
163	189
163	191
163	192
163	193
163	194
163	195
163	197
163	199
164	165
164	166
164	168
164	169
164	170
164	172
164	173
164	174
164	175
164	176
164	178
164	182
164	183
164	185
164	186
164	187
164	189
164	191
164	192
164	193
164	194
164	195
164	196
164	197
164	199
165	166
165	167
165	168
165	169
165	171
165	172
165	174
165	175
165	177
165	178
165	179
165	181
165	183
165	184
165	187
165	188
165	189
165	190
165	191
165	192
165	193
165	194
165	195
165	196
165	197
165	198
165	199
166	168
166	170
166	171
166	172
166	173
166	174
166	175
166	176
166	177
166	178
166	179
166	180
166	181
166	183
166	184
166	185
166	187
166	188
166	189
166	191
166	192
166	193
166	194
166	195
166	196
166	197
166	198
166	199
167	168
167	169
167	170
167	171
167	172
167	173
167	174
167	176
167	177
167	182
167	183
167	185
167	187
167	190
167	192
167	193
167	194
167	195
167	197
167	199
168	169
168	171
168	173
168	174
168	175
168	178
168	181
168	182
168	183
168	184
168	187
168	188
168	189
168	190
168	191
168	192
168	193
168	194
168	196
168	197
168	198
168	199
169	171
169	172
169	173
169	174
169	175
169	176
169	178
169	181
169	182
169	183
169	184
169	185
169	187
169	188
169	189
169	191
169	192
169	193
169	195
169	196
169	197
169	198
170	171
170	172
170	173
170	174
170	176
170	177
170	178
170	179
170	180
170	181
170	182
170	183
170	184
170	185
170	188
170	189
170	193
170	195
170	197
170	198
170	199
171	173
171	174
171	175
171	176
171	177
171	180
171	181
171	182
171	183
171	184
171	185
171	187
171	189
171	190
171	191
171	193
171	194
171	195
171	196
171	197
171	198
171	199
172	175
172	176
172	177
172	180
172	181
172	182
172	183
172	184
172	187
172	189
172	190
172	191
172	192
172	195
172	197
172	199
173	174
173	175
173	179
173	180
173	181
173	183
173	184
173	185
173	186
173	187
173	189
173	191
173	192
173	193
173	195
173	196
173	197
173	198
174	175
174	176
174	177
174	179
174	180
174	181
174	182
174	183
174	186
174	187
174	188
174	189
174	192
174	194
174	195
174	197
174	198
174	199
175	178
175	179
175	180
175	181
175	182
175	183
175	184
175	185
175	186
175	187
175	188
175	189
175	191
175	192
175	196
175	197
175	198
176	177
176	178
176	179
176	180
176	181
176	182
176	184
176	185
176	186
176	187
176	188
176	189
176	192
176	194
176	195
176	196
176	198
176	199
177	178
177	179
177	180
177	181
177	182
177	184
177	186
177	191
177	192
177	194
177	196
177	197
177	198
177	199
178	180
178	182
178	183
178	184
178	186
178	187
178	188
178	189
178	190
178	191
178	193
178	195
178	197
178	198
178	199
179	180
179	181
179	183
179	184
179	188
179	190
179	193
179	196
179	197
179	198
179	199
180	182
180	184
180	185
180	187
180	188
180	189
180	192
180	195
180	196
180	197
180	198
180	199
181	182
181	183
181	185
181	187
181	188
181	192
181	193
181	195
181	196
181	197
181	198
181	199
182	183
182	186
182	187
182	189
182	190
182	191
182	192
182	193
182	195
182	196
182	198
183	185
183	186
183	187
183	188
183	189
183	190
183	191
183	192
183	194
183	195
183	196
183	197
183	198
183	199
184	185
184	188
184	189
184	190
184	192
184	193
184	194
184	195
184	196
184	197
185	186
185	188
185	189
185	191
185	192
185	193
185	194
185	196
185	197
185	198
185	199
186	187
186	188
186	189
186	190
186	191
186	193
186	194
186	195
186	197
186	198
186	199
187	188
187	189
187	192
187	194
187	196
187	197
187	198
187	199
188	189
188	190
188	191
188	192
188	193
188	195
188	196
188	197
188	199
189	190
189	191
189	194
189	197
189	199
190	191
190	194
190	195
190	197
191	192
191	193
191	194
191	195
191	196
191	197
191	198
191	199
192	193
192	194
192	197
192	198
192	199
193	194
193	195
193	196
193	197
193	198
193	199
194	196
194	197
195	196
195	197
195	198
195	199
196	197
196	199
197	198
197	199
