120	5460
0	1
0	2
0	3
0	4
0	5
0	6
0	8
0	9
0	10
0	11
0	12
0	13
0	15
0	18
0	20
0	21
0	22
0	23
0	25
0	26
0	27
0	28
0	29
0	30
0	32
0	33
0	34
0	35
0	36
0	37
0	38
0	40
0	41
0	42
0	43
0	44
0	46
0	48
0	49
0	52
0	54
0	55
0	56
0	57
0	58
0	59
0	61
0	63
0	68
0	69
0	71
0	72
0	73
0	74
0	75
0	76
0	77
0	78
0	79
0	80
0	81
0	83
0	84
0	85
0	86
0	87
0	88
0	90
0	91
0	92
0	93
0	94
0	95
0	96
0	97
0	98
0	99
0	100
0	102
0	104
0	105
0	106
0	109
0	110
0	111
0	112
0	113
0	115
0	116
0	117
0	119
1	2
1	3
1	4
1	6
1	7
1	10
1	11
1	12
1	13
1	14
1	16
1	17
1	18
1	19
1	21
1	23
1	25
1	26
1	28
1	29
1	30
1	34
1	35
1	36
1	37
1	38
1	39
1	40
1	41
1	42
1	43
1	44
1	45
1	47
1	48
1	49
1	50
1	51
1	52
1	54
1	55
1	56
1	57
1	59
1	60
1	62
1	63
1	64
1	65
1	66
1	67
1	69
1	71
1	72
1	73
1	76
1	77
1	78
1	80
1	81
1	82
1	83
1	84
1	85
1	86
1	87
1	89
1	92
1	93
1	94
1	96
1	98
1	100
1	101
1	102
1	103
1	104
1	105
1	106
1	107
1	108
1	109
1	111
1	112
1	114
1	115
1	116
1	117
1	118
1	119
2	4
2	5
2	6
2	7
2	9
2	11
2	14
2	15
2	16
2	17
2	18
2	19
2	20
2	21
2	22
2	23
2	24
2	26
2	29
2	30
2	31
2	33
2	34
2	35
2	36
2	37
2	38
2	39
2	40
2	41
2	42
2	43
2	44
2	45
2	46
2	47
2	49
2	50
2	51
2	52
2	53
2	54
2	55
2	58
2	59
2	60
2	61
2	62
2	64
2	67
2	68
2	69
2	70
2	72
2	74
2	75
2	76
2	77
2	78
2	79
2	81
2	82
2	84
2	85
2	87
2	89
2	90
2	91
2	94
2	95
2	96
2	97
2	99
2	100
2	103
2	104
2	105
2	106
2	107
2	108
2	109
2	110
2	111
2	112
2	113
2	115
2	117
2	118
2	119
3	5
3	6
3	7
3	8
3	9
3	10
3	11
3	12
3	13
3	14
3	16
3	17
3	19
3	20
3	21
3	22
3	23
3	24
3	25
3	26
3	29
3	30
3	31
3	33
3	34
3	35
3	37
3	38
3	39
3	40
3	41
3	42
3	43
3	44
3	45
3	46
3	47
3	48
3	49
3	50
3	51
3	52
3	53
3	54
3	55
3	58
3	59
3	60
3	61
3	64
3	65
3	67
3	68
3	70
3	72
3	73
3	74
3	75
3	77
3	78
3	79
3	80
3	81
3	82
3	84
3	87
3	88
3	91
3	92
3	94
3	95
3	97
3	99
3	100
3	102
3	103
3	105
3	106
3	107
3	108
3	110
3	111
3	112
3	113
3	114
3	115
3	117
3	118
3	119
4	5
4	7
4	8
4	10
4	11
4	12
4	13
4	14
4	16
4	17
4	19
4	20
4	21
4	22
4	23
4	24
4	25
4	27
4	29
4	30
4	31
4	32
4	34
4	35
4	37
4	38
4	39
4	40
4	42
4	43
4	44
4	45
4	46
4	47
4	48
4	49
4	50
4	53
4	54
4	56
4	57
4	58
4	59
4	61
4	64
4	65
4	66
4	67
4	68
4	70
4	71
4	73
4	74
4	75
4	77
4	78
4	79
4	80
4	81
4	82
4	83
4	84
4	86
4	87
4	88
4	91
4	93
4	94
4	95
4	97
4	98
4	99
4	101
4	102
4	103
4	105
4	106
4	107
4	108
4	110
4	111
4	113
4	114
4	115
4	116
4	117
4	118
4	119
5	6
5	7
5	9
5	10
5	12
5	13
5	14
5	16
5	17
5	18
5	19
5	22
5	23
5	24
5	25
5	26
5	28
5	29
5	30
5	32
5	35
5	36
5	38
5	39
5	40
5	41
5	42
5	43
5	45
5	47
5	49
5	51
5	52
5	53
5	54
5	55
5	56
5	58
5	59
5	60
5	61
5	62
5	63
5	64
5	65
5	66
5	67
5	69
5	71
5	73
5	74
5	76
5	77
5	78
5	79
5	80
5	81
5	82
5	83
5	84
5	86
5	87
5	88
5	89
5	90
5	92
5	93
5	95
5	96
5	98
5	100
5	101
5	102
5	103
5	104
5	105
5	106
5	107
5	109
5	110
5	111
5	112
5	114
5	115
5	116
5	118
5	119
6	8
6	10
6	11
6	12
6	13
6	14
6	15
6	17
6	18
6	19
6	20
6	21
6	22
6	23
6	24
6	25
6	27
6	28
6	30
6	31
6	32
6	34
6	35
6	36
6	37
6	38
6	39
6	40
6	42
6	44
6	45
6	46
6	47
6	48
6	50
6	53
6	54
6	56
6	57
6	58
6	59
6	61
6	62
6	64
6	65
6	66
6	67
6	68
6	69
6	70
6	71
6	73
6	74
6	76
6	78
6	80
6	81
6	82
6	85
6	86
6	87
6	88
6	89
6	90
6	91
6	93
6	94
6	95
6	96
6	97
6	98
6	99
6	101
6	103
6	104
6	105
6	106
6	107
6	108
6	110
6	111
6	113
6	114
6	115
6	116
6	118
7	8
7	9
7	10
7	11
7	12
7	13
7	14
7	15
7	18
7	19
7	20
7	21
7	22
7	23
7	25
7	26
7	27
7	28
7	30
7	31
7	32
7	33
7	34
7	35
7	36
7	37
7	38
7	39
7	40
7	41
7	42
7	44
7	46
7	47
7	48
7	50
7	52
7	53
7	54
7	55
7	56
7	57
7	58
7	59
7	60
7	61
7	63
7	66
7	68
7	69
7	71
7	72
7	73
7	74
7	76
7	78
7	80
7	81
7	82
7	85
7	86
7	87
7	88
7	89
7	90
7	91
7	92
7	93
7	94
7	95
7	96
7	97
7	98
7	99
7	100
7	104
7	105
7	106
7	110
7	111
7	112
7	113
7	114
7	115
7	116
7	118
8	9
8	11
8	14
8	16
8	17
8	18
8	19
8	21
8	22
8	23
8	24
8	26
8	29
8	30
8	32
8	34
8	35
8	36
8	37
8	38
8	39
8	40
8	41
8	42
8	43
8	44
8	45
8	46
8	47
8	49
8	50
8	51
8	52
8	53
8	54
8	55
8	56
8	57
8	58
8	59
8	60
8	61
8	62
8	63
8	64
8	66
8	67
8	69
8	71
8	72
8	74
8	76
8	77
8	78
8	79
8	81
8	82
8	83
8	84
8	85
8	86
8	87
8	89
8	90
8	93
8	94
8	95
8	96
8	98
8	100
8	101
8	103
8	104
8	105
8	106
8	107
8	108
8	109
8	110
8	111
8	112
8	115
8	116
8	117
8	118
8	119
9	10
9	11
9	12
9	13
9	14
9	15
9	16
9	17
9	18
9	19
9	20
9	21
9	23
9	25
9	27
9	28
9	29
9	30
9	31
9	34
9	35
9	36
9	37
9	38
9	39
9	40
9	42
9	43
9	44
9	45
9	47
9	48
9	49
9	50
9	54
9	56
9	57
9	59
9	62
9	64
9	65
9	66
9	67
9	68
9	69
9	70
9	71
9	73
9	75
9	76
9	77
9	78
9	80
9	81
9	82
9	83
9	84
9	85
9	86
9	87
9	89
9	91
9	93
9	94
9	96
9	97
9	98
9	99
9	101
9	102
9	103
9	104
9	105
9	106
9	107
9	108
9	109
9	111
9	113
9	114
9	115
9	116
9	117
9	118
9	119
10	11
10	14
10	15
10	16
10	17
10	18
10	19
10	20
10	21
10	22
10	24
10	26
10	27
10	29
10	30
10	31
10	32
10	33
10	34
10	35
10	36
10	39
10	41
10	42
10	43
10	44
10	45
10	46
10	47
10	49
10	50
10	51
10	52
10	53
10	54
10	56
10	57
10	58
10	60
10	62
10	63
10	64
10	66
10	68
10	69
10	70
10	71
10	72
10	74
10	75
10	76
10	77
10	78
10	79
10	81
10	83
10	84
10	85
10	87
10	89
10	90
10	91
10	93
10	94
10	95
10	97
10	98
10	100
10	101
10	103
10	104
10	106
10	107
10	108
10	109
10	110
10	111
10	112
10	113
10	115
10	116
10	117
10	118
11	12
11	15
11	16
11	17
11	18
11	19
11	20
11	22
11	23
11	24
11	25
11	27
11	28
11	29
11	30
11	31
11	32
11	33
11	35
11	36
11	39
11	40
11	41
11	45
11	47
11	49
11	51
11	52
11	53
11	54
11	55
11	56
11	59
11	60
11	61
11	62
11	63
11	65
11	66
11	67
11	70
11	71
11	73
11	74
11	75
11	76
11	77
11	78
11	79
11	80
11	81
11	82
11	83
11	84
11	86
11	88
11	89
11	90
11	91
11	92
11	93
11	95
11	96
11	97
11	98
11	99
11	100
11	101
11	102
11	103
11	104
11	105
11	107
11	109
11	110
11	111
11	112
11	113
11	114
11	118
11	119
12	14
12	15
12	16
12	17
12	18
12	19
12	20
12	21
12	22
12	24
12	26
12	27
12	29
12	30
12	31
12	32
12	33
12	34
12	35
12	36
12	37
12	38
12	39
12	40
12	41
12	42
12	43
12	45
12	46
12	47
12	49
12	50
12	51
12	53
12	54
12	55
12	56
12	57
12	58
12	59
12	60
12	61
12	62
12	63
12	64
12	66
12	67
12	68
12	69
12	70
12	71
12	72
12	74
12	75
12	79
12	82
12	83
12	84
12	85
12	86
12	87
12	89
12	90
12	91
12	93
12	94
12	96
12	99
12	100
12	101
12	104
12	105
12	107
12	108
12	109
12	110
12	112
12	113
12	115
12	116
12	117
12	119
13	15
13	16
13	17
13	18
13	19
13	20
13	21
13	22
13	23
13	24
13	27
13	29
13	30
13	31
13	32
13	33
13	34
13	35
13	36
13	37
13	39
13	40
13	41
13	44
13	45
13	46
13	47
13	49
13	50
13	51
13	52
13	53
13	54
13	55
13	56
13	57
13	59
13	60
13	61
13	62
13	63
13	66
13	67
13	70
13	71
13	72
13	74
13	75
13	76
13	77
13	78
13	79
13	81
13	82
13	83
13	84
13	85
13	86
13	89
13	90
13	91
13	93
13	94
13	95
13	96
13	97
13	98
13	99
13	100
13	101
13	103
13	104
13	105
13	107
13	108
13	109
13	110
13	111
13	112
13	113
13	117
13	118
13	119
14	15
14	17
14	18
14	20
14	21
14	22
14	23
14	24
14	25
14	27
14	28
14	29
14	30
14	32
14	33
14	34
14	35
14	36
14	37
14	40
14	41
14	44
14	45
14	46
14	48
14	49
14	51
14	52
14	54
14	55
14	56
14	57
14	59
14	61
14	62
14	63
14	65
14	67
14	70
14	71
14	72
14	73
14	74
14	75
14	76
14	77
14	78
14	79
14	80
14	81
14	83
14	84
14	85
14	86
14	88
14	90
14	91
14	92
14	93
14	94
14	95
14	96
14	97
14	98
14	99
14	100
14	101
14	102
14	103
14	104
14	105
14	107
14	108
14	109
14	110
14	111
14	112
14	113
14	117
14	119
15	16
15	17
15	19
15	21
15	22
15	23
15	24
15	25
15	26
15	29
15	30
15	32
15	34
15	35
15	37
15	38
15	39
15	40
15	41
15	42
15	43
15	44
15	45
15	46
15	47
15	48
15	49
15	50
15	51
15	52
15	53
15	54
15	55
15	56
15	57
15	58
15	59
15	60
15	61
15	63
15	64
15	65
15	66
15	67
15	71
15	72
15	73
15	74
15	77
15	78
15	79
15	80
15	81
15	82
15	83
15	84
15	86
15	87
15	88
15	92
15	93
15	94
15	95
15	98
15	100
15	101
15	102
15	103
15	105
15	106
15	107
15	108
15	110
15	111
15	112
15	114
15	115
15	116
15	117
15	118
15	119
16	17
16	18
16	20
16	21
16	22
16	23
16	24
16	25
16	26
16	27
16	28
16	30
16	32
16	33
16	34
16	35
16	36
16	37
16	38
16	40
16	41
16	42
16	44
16	45
16	46
16	48
16	51
16	52
16	54
16	55
16	56
16	57
16	58
16	59
16	61
16	62
16	63
16	64
16	65
16	67
16	68
16	69
16	70
16	71
16	72
16	73
16	74
16	76
16	78
16	80
16	81
16	85
16	86
16	87
16	88
16	90
16	91
16	92
16	93
16	94
16	95
16	96
16	97
16	98
16	99
16	100
16	101
16	103
16	104
16	105
16	106
16	107
16	108
16	110
16	111
16	112
16	113
16	115
16	116
17	18
17	19
17	21
17	22
17	23
17	26
17	27
17	28
17	31
17	32
17	33
17	34
17	36
17	37
17	38
17	40
17	41
17	43
17	44
17	46
17	47
17	48
17	49
17	50
17	52
17	53
17	54
17	55
17	57
17	58
17	60
17	61
17	63
17	66
17	68
17	69
17	71
17	72
17	73
17	74
17	75
17	76
17	77
17	79
17	80
17	81
17	82
17	83
17	84
17	85
17	86
17	87
17	88
17	89
17	90
17	91
17	92
17	93
17	95
17	96
17	97
17	98
17	99
17	102
17	105
17	106
17	109
17	111
17	112
17	113
17	114
17	115
17	116
17	117
17	118
17	119
18	20
18	22
18	23
18	24
18	25
18	26
18	27
18	29
18	31
18	32
18	33
18	34
18	35
18	37
18	38
18	39
18	40
18	41
18	42
18	43
18	44
18	46
18	47
18	48
18	50
18	51
18	52
18	53
18	55
18	56
18	57
18	58
18	59
18	60
18	61
18	63
18	64
18	65
18	66
18	67
18	68
18	70
18	71
18	72
18	73
18	75
18	77
18	78
18	79
18	81
18	82
18	83
18	84
18	86
18	88
18	92
18	94
18	95
18	97
18	98
18	99
18	100
18	101
18	102
18	103
18	106
18	107
18	108
18	110
18	113
18	114
18	115
18	116
18	117
18	118
18	119
19	20
19	22
19	23
19	24
19	25
19	26
19	27
19	28
19	29
19	32
19	33
19	34
19	35
19	36
19	37
19	38
19	40
19	41
19	42
19	43
19	44
19	46
19	48
19	51
19	52
19	55
19	56
19	57
19	58
19	59
19	61
19	62
19	63
19	64
19	65
19	67
19	68
19	69
19	70
19	71
19	72
19	73
19	75
19	76
19	77
19	78
19	79
19	81
19	83
19	84
19	85
19	86
19	88
19	90
19	92
19	94
19	95
19	96
19	97
19	98
19	99
19	100
19	101
19	102
19	103
19	104
19	106
19	107
19	108
19	109
19	110
19	113
19	115
19	116
19	117
19	119
20	21
20	22
20	23
20	24
20	26
20	28
20	32
20	34
20	36
20	37
20	38
20	40
20	41
20	43
20	44
20	45
20	46
20	47
20	48
20	49
20	50
20	51
20	52
20	53
20	54
20	55
20	57
20	58
20	60
20	61
20	62
20	63
20	64
20	65
20	66
20	67
20	69
20	71
20	72
20	73
20	74
20	76
20	77
20	79
20	80
20	81
20	82
20	83
20	84
20	85
20	86
20	87
20	88
20	89
20	90
20	92
20	93
20	95
20	96
20	98
20	101
20	102
20	103
20	105
20	106
20	107
20	108
20	109
20	111
20	112
20	114
20	115
20	116
20	117
20	118
20	119
21	22
21	23
21	24
21	25
21	26
21	27
21	28
21	29
21	31
21	32
21	33
21	35
21	36
21	38
21	39
21	40
21	41
21	42
21	43
21	47
21	51
21	52
21	53
21	55
21	56
21	58
21	59
21	60
21	61
21	62
21	63
21	64
21	65
21	66
21	67
21	68
21	69
21	70
21	71
21	73
21	75
21	76
21	77
21	78
21	79
21	81
21	82
21	83
21	84
21	86
21	88
21	89
21	90
21	92
21	95
21	96
21	97
21	98
21	99
21	100
21	101
21	102
21	103
21	104
21	106
21	107
21	109
21	110
21	113
21	114
21	115
21	116
21	118
21	119
22	23
22	25
22	26
22	27
22	28
22	29
22	30
22	31
22	33
22	37
22	38
22	39
22	42
22	43
22	44
22	45
22	48
22	49
22	50
22	51
22	52
22	55
22	56
22	57
22	59
22	60
22	62
22	63
22	64
22	65
22	66
22	67
22	68
22	69
22	70
22	72
22	75
22	76
22	77
22	78
22	80
22	82
22	83
22	85
22	86
22	87
22	89
22	91
22	92
22	93
22	94
22	96
22	97
22	98
22	99
22	100
22	101
22	102
22	103
22	104
22	105
22	106
22	108
22	109
22	111
22	112
22	114
22	116
22	117
22	118
22	119
23	24
23	25
23	26
23	27
23	28
23	29
23	30
23	31
23	32
23	33
23	34
23	35
23	36
23	39
23	41
23	42
23	43
23	45
23	46
23	47
23	48
23	49
23	50
23	51
23	53
23	54
23	56
23	57
23	58
23	60
23	62
23	63
23	64
23	65
23	66
23	68
23	69
23	70
23	71
23	72
23	73
23	74
23	75
23	79
23	80
23	83
23	84
23	85
23	87
23	88
23	89
23	90
23	91
23	92
23	93
23	94
23	100
23	101
23	102
23	104
23	107
23	108
23	109
23	110
23	112
23	113
23	114
23	115
23	116
23	117
24	25
24	26
24	27
24	28
24	29
24	30
24	31
24	33
24	34
24	35
24	36
24	37
24	38
24	39
24	40
24	41
24	42
24	43
24	44
24	47
24	48
24	49
24	50
24	52
24	54
24	55
24	56
24	57
24	59
24	60
24	63
24	66
24	68
24	69
24	71
24	72
24	73
24	75
24	76
24	77
24	78
24	80
24	81
24	82
24	83
24	84
24	85
24	86
24	87
24	89
24	91
24	92
24	93
24	94
24	96
24	97
24	98
24	99
24	100
24	102
24	104
24	105
24	106
24	109
24	111
24	112
24	113
24	114
24	115
24	116
24	117
24	118
24	119
25	26
25	27
25	31
25	32
25	33
25	34
25	36
25	37
25	38
25	40
25	41
25	43
25	44
25	45
25	46
25	47
25	49
25	50
25	51
25	52
25	53
25	54
25	55
25	57
25	58
25	60
25	61
25	62
25	63
25	64
25	66
25	67
25	68
25	69
25	70
25	71
25	72
25	74
25	75
25	76
25	77
25	79
25	81
25	82
25	83
25	84
25	85
25	86
25	87
25	89
25	90
25	91
25	93
25	95
25	96
25	97
25	98
25	99
25	101
25	103
25	105
25	106
25	107
25	108
25	109
25	111
25	112
25	113
25	115
25	116
25	117
25	118
25	119
26	27
26	28
26	29
26	30
26	31
26	32
26	34
26	35
26	36
26	37
26	39
26	40
26	44
26	45
26	46
26	47
26	48
26	49
26	50
26	53
26	54
26	56
26	57
26	59
26	61
26	62
26	65
26	66
26	67
26	70
26	71
26	73
26	74
26	75
26	76
26	77
26	78
26	79
26	80
26	81
26	82
26	83
26	84
26	85
26	86
26	88
26	89
26	90
26	91
26	93
26	94
26	95
26	96
26	97
26	98
26	99
26	101
26	102
26	103
26	104
26	105
26	107
26	108
26	109
26	110
26	111
26	113
26	114
26	117
26	118
26	119
27	28
27	29
27	30
27	34
27	35
27	36
27	37
27	38
27	39
27	40
27	41
27	42
27	43
27	44
27	45
27	46
27	47
27	48
27	49
27	50
27	51
27	52
27	53
27	54
27	55
27	58
27	59
27	60
27	61
27	62
27	64
27	65
27	67
27	69
27	72
27	73
27	74
27	76
27	77
27	78
27	79
27	80
27	81
27	82
27	84
27	85
27	87
27	88
27	89
27	90
27	92
27	94
27	95
27	96
27	100
27	102
27	103
27	104
27	105
27	106
27	107
27	108
27	109
27	110
27	111
27	112
27	114
27	115
27	117
27	118
27	119
28	29
28	30
28	31
28	32
28	33
28	34
28	35
28	37
28	38
28	39
28	40
28	41
28	42
28	43
28	44
28	45
28	46
28	47
28	49
28	50
28	51
28	52
28	53
28	54
28	55
28	56
28	57
28	58
28	59
28	60
28	61
28	63
28	64
28	66
28	67
28	68
28	70
28	71
28	72
28	74
28	75
28	77
28	78
28	79
28	81
28	82
28	83
28	84
28	86
28	87
28	91
28	93
28	94
28	95
28	97
28	98
28	99
28	100
28	101
28	103
28	105
28	106
28	107
28	108
28	110
28	111
28	112
28	113
28	115
28	116
28	117
28	118
28	119
29	31
29	32
29	33
29	34
29	36
29	37
29	38
29	40
29	41
29	44
29	45
29	46
29	47
29	48
29	50
29	51
29	52
29	53
29	54
29	55
29	57
29	58
29	60
29	61
29	62
29	63
29	64
29	65
29	66
29	67
29	68
29	69
29	70
29	71
29	72
29	73
29	74
29	76
29	80
29	81
29	82
29	85
29	86
29	87
29	88
29	89
29	90
29	91
29	92
29	93
29	95
29	96
29	97
29	98
29	99
29	101
29	103
29	105
29	106
29	107
29	108
29	111
29	112
29	113
29	114
29	115
29	116
29	118
30	31
30	32
30	33
30	34
30	36
30	37
30	38
30	40
30	41
30	43
30	44
30	46
30	47
30	48
30	50
30	51
30	52
30	53
30	55
30	57
30	58
30	60
30	61
30	62
30	63
30	64
30	65
30	66
30	67
30	68
30	69
30	70
30	71
30	72
30	73
30	75
30	76
30	77
30	79
30	81
30	82
30	83
30	84
30	85
30	86
30	88
30	89
30	90
30	92
30	95
30	96
30	97
30	98
30	99
30	101
30	102
30	103
30	106
30	107
30	108
30	109
30	113
30	114
30	115
30	116
30	117
30	118
30	119
31	32
31	34
31	35
31	36
31	37
31	38
31	40
31	41
31	42
31	43
31	44
31	45
31	46
31	48
31	49
31	51
31	52
31	54
31	55
31	56
31	57
31	58
31	59
31	61
31	62
31	63
31	64
31	65
31	67
31	69
31	71
31	72
31	73
31	74
31	76
31	77
31	78
31	79
31	80
31	81
31	83
31	84
31	85
31	86
31	87
31	88
31	90
31	92
31	93
31	94
31	95
31	96
31	98
31	100
31	101
31	102
31	103
31	104
31	105
31	106
31	107
31	108
31	109
31	110
31	111
31	112
31	115
31	116
31	117
31	119
32	33
32	34
32	35
32	36
32	37
32	38
32	39
32	40
32	41
32	42
32	43
32	44
32	45
32	47
32	48
32	49
32	50
32	51
32	52
32	54
32	55
32	59
32	60
32	62
32	64
32	65
32	67
32	68
32	69
32	70
32	72
32	73
32	75
32	76
32	77
32	78
32	80
32	81
32	82
32	84
32	85
32	87
32	89
32	91
32	92
32	94
32	96
32	97
32	99
32	100
32	102
32	103
32	104
32	105
32	106
32	107
32	108
32	109
32	111
32	112
32	113
32	114
32	115
32	117
32	118
32	119
33	34
33	35
33	36
33	37
33	38
33	39
33	40
33	42
33	43
33	44
33	45
33	46
33	47
33	48
33	49
33	50
33	53
33	54
33	56
33	57
33	58
33	59
33	61
33	62
33	64
33	65
33	66
33	67
33	69
33	71
33	73
33	74
33	76
33	77
33	78
33	79
33	80
33	81
33	82
33	83
33	84
33	85
33	86
33	87
33	88
33	89
33	90
33	93
33	94
33	95
33	96
33	98
33	101
33	102
33	103
33	104
33	105
33	106
33	107
33	108
33	109
33	110
33	111
33	114
33	115
33	116
33	117
33	118
33	119
34	38
34	39
34	42
34	43
34	45
34	49
34	51
34	52
34	53
34	55
34	56
34	58
34	59
34	60
34	61
34	62
34	63
34	64
34	65
34	66
34	67
34	68
34	69
34	70
34	74
34	75
34	76
34	77
34	78
34	79
34	80
34	82
34	83
34	86
34	87
34	88
34	89
34	90
34	91
34	92
34	93
34	95
34	96
34	97
34	98
34	99
34	100
34	101
34	102
34	103
34	104
34	105
34	106
34	109
34	110
34	111
34	112
34	114
34	116
34	118
34	119
35	37
35	38
35	43
35	44
35	45
35	46
35	48
35	49
35	50
35	51
35	52
35	53
35	55
35	57
35	58
35	60
35	61
35	62
35	63
35	64
35	65
35	66
35	67
35	68
35	69
35	70
35	72
35	74
35	75
35	76
35	77
35	79
35	80
35	82
35	83
35	85
35	86
35	87
35	88
35	89
35	90
35	91
35	92
35	93
35	95
35	96
35	97
35	98
35	99
35	101
35	102
35	103
35	105
35	106
35	108
35	109
35	111
35	112
35	114
35	116
35	117
35	118
35	119
36	37
36	38
36	39
36	42
36	43
36	44
36	45
36	46
36	48
36	49
36	50
36	51
36	52
36	53
36	55
36	56
36	57
36	58
36	59
36	60
36	61
36	63
36	64
36	65
36	66
36	67
36	68
36	70
36	72
36	74
36	75
36	77
36	78
36	79
36	80
36	82
36	83
36	86
36	87
36	88
36	91
36	92
36	93
36	94
36	95
36	97
36	98
36	99
36	100
36	101
36	102
36	103
36	105
36	106
36	108
36	110
36	111
36	112
36	114
36	116
36	117
36	118
36	119
37	39
37	41
37	42
37	43
37	45
37	47
37	49
37	51
37	52
37	53
37	54
37	56
37	58
37	60
37	62
37	63
37	64
37	65
37	66
37	68
37	69
37	70
37	71
37	73
37	74
37	75
37	76
37	77
37	78
37	79
37	80
37	81
37	83
37	84
37	87
37	88
37	89
37	90
37	91
37	92
37	93
37	95
37	97
37	98
37	100
37	101
37	102
37	103
37	104
37	106
37	107
37	109
37	110
37	111
37	112
37	113
37	114
37	115
37	116
37	118
38	39
38	41
38	44
38	45
38	46
38	47
38	48
38	49
38	50
38	51
38	52
38	53
38	54
38	56
38	57
38	60
38	62
38	63
38	65
38	66
38	70
38	71
38	72
38	73
38	74
38	75
38	76
38	77
38	78
38	79
38	80
38	81
38	83
38	84
38	85
38	88
38	89
38	90
38	91
38	92
38	93
38	94
38	95
38	97
38	98
38	100
38	101
38	102
38	103
38	104
38	107
38	108
38	109
38	110
38	111
38	112
38	113
38	114
38	117
38	118
39	40
39	41
39	43
39	44
39	45
39	46
39	48
39	49
39	51
39	52
39	54
39	55
39	57
39	58
39	61
39	62
39	63
39	64
39	65
39	67
39	68
39	69
39	70
39	71
39	72
39	73
39	74
39	75
39	76
39	77
39	79
39	80
39	81
39	83
39	84
39	85
39	86
39	87
39	88
39	90
39	91
39	92
39	93
39	95
39	96
39	97
39	98
39	99
39	101
39	102
39	103
39	105
39	106
39	107
39	108
39	109
39	111
39	112
39	113
39	115
39	116
39	117
39	119
40	42
40	43
40	44
40	45
40	46
40	48
40	49
40	50
40	51
40	52
40	53
40	56
40	57
40	58
40	60
40	62
40	63
40	64
40	65
40	66
40	68
40	69
40	70
40	72
40	74
40	75
40	76
40	77
40	78
40	79
40	80
40	83
40	85
40	87
40	88
40	89
40	90
40	91
40	92
40	93
40	94
40	95
40	97
40	98
40	100
40	101
40	102
40	103
40	104
40	106
40	108
40	109
40	110
40	111
40	112
40	114
40	116
40	117
40	118
41	42
41	43
41	44
41	45
41	46
41	48
41	49
41	50
41	53
41	56
41	57
41	58
41	59
41	61
41	62
41	64
41	65
41	66
41	67
41	68
41	69
41	70
41	74
41	75
41	76
41	77
41	78
41	79
41	80
41	82
41	83
41	85
41	86
41	87
41	88
41	89
41	90
41	91
41	93
41	94
41	95
41	96
41	97
41	98
41	99
41	101
41	102
41	103
41	104
41	105
41	106
41	108
41	109
41	110
41	111
41	114
41	116
41	117
41	118
41	119
42	44
42	45
42	46
42	47
42	48
42	49
42	50
42	51
42	52
42	53
42	54
42	55
42	57
42	60
42	61
42	62
42	63
42	65
42	66
42	67
42	70
42	71
42	72
42	73
42	74
42	75
42	76
42	77
42	79
42	80
42	81
42	82
42	83
42	84
42	85
42	86
42	88
42	89
42	90
42	91
42	92
42	93
42	95
42	96
42	97
42	98
42	99
42	101
42	102
42	103
42	105
42	107
42	108
42	109
42	111
42	112
42	113
42	114
42	117
42	118
42	119
43	44
43	45
43	46
43	47
43	48
43	50
43	51
43	52
43	53
43	54
43	55
43	56
43	57
43	59
43	60
43	61
43	62
43	63
43	65
43	66
43	67
43	70
43	71
43	72
43	73
43	74
43	76
43	78
43	80
43	81
43	82
43	85
43	86
43	88
43	89
43	90
43	91
43	92
43	93
43	94
43	95
43	96
43	97
43	98
43	99
43	100
43	101
43	103
43	104
43	105
43	107
43	108
43	110
43	111
43	112
43	113
43	114
43	118
44	45
44	47
44	49
44	51
44	53
44	54
44	55
44	56
44	58
44	59
44	60
44	61
44	62
44	63
44	64
44	65
44	66
44	67
44	68
44	69
44	70
44	71
44	73
44	74
44	75
44	79
44	80
44	82
44	83
44	84
44	86
44	87
44	88
44	89
44	90
44	91
44	92
44	93
44	96
44	99
44	100
44	101
44	102
44	104
44	105
44	107
44	109
44	110
44	112
44	113
44	114
44	115
44	116
44	119
45	46
45	47
45	48
45	50
45	52
45	53
45	55
45	56
45	57
45	58
45	59
45	60
45	61
45	63
45	66
45	68
45	69
45	71
45	72
45	73
45	75
45	76
45	77
45	78
45	79
45	81
45	82
45	83
45	84
45	85
45	86
45	88
45	89
45	90
45	92
45	94
45	95
45	96
45	97
45	98
45	99
45	100
45	102
45	104
45	106
45	109
45	110
45	113
45	114
45	115
45	116
45	117
45	118
45	119
46	47
46	49
46	51
46	52
46	54
46	55
46	56
46	59
46	60
46	62
46	63
46	64
46	65
46	66
46	67
46	68
46	69
46	70
46	71
46	73
46	75
46	76
46	77
46	78
46	80
46	81
46	82
46	83
46	84
46	86
46	87
46	89
46	91
46	92
46	93
46	96
46	97
46	98
46	99
46	100
46	101
46	102
46	103
46	104
46	105
46	106
46	107
46	109
46	111
46	112
46	113
46	114
46	115
46	116
46	118
46	119
47	48
47	49
47	51
47	52
47	55
47	56
47	57
47	58
47	59
47	61
47	62
47	63
47	64
47	65
47	67
47	68
47	69
47	70
47	72
47	74
47	75
47	76
47	77
47	78
47	79
47	80
47	83
47	85
47	86
47	87
47	88
47	90
47	91
47	92
47	93
47	94
47	95
47	96
47	97
47	98
47	99
47	100
47	101
47	102
47	103
47	104
47	105
47	106
47	108
47	109
47	110
47	111
47	112
47	116
47	117
47	119
48	49
48	51
48	52
48	53
48	54
48	55
48	56
48	58
48	59
48	60
48	61
48	62
48	63
48	64
48	66
48	67
48	68
48	69
48	70
48	71
48	74
48	75
48	76
48	77
48	78
48	79
48	81
48	82
48	83
48	84
48	86
48	87
48	89
48	90
48	91
48	93
48	95
48	96
48	97
48	98
48	99
48	100
48	101
48	103
48	104
48	105
48	106
48	107
48	109
48	110
48	111
48	112
48	113
48	115
48	116
48	118
48	119
49	50
49	51
49	52
49	53
49	55
49	56
49	57
49	58
49	59
49	60
49	61
49	62
49	63
49	64
49	65
49	66
49	67
49	68
49	69
49	70
49	71
49	72
49	73
49	76
49	78
49	81
49	82
49	85
49	86
49	88
49	89
49	90
49	92
49	94
49	95
49	96
49	97
49	98
49	99
49	100
49	101
49	103
49	104
49	106
49	107
49	108
49	110
49	113
49	114
49	115
49	116
49	118
50	51
50	52
50	54
50	55
50	56
50	58
50	59
50	61
50	62
50	63
50	64
50	65
50	67
50	68
50	69
50	70
50	71
50	73
50	74
50	75
50	76
50	77
50	78
50	79
50	80
50	81
50	83
50	84
50	86
50	87
50	88
50	90
50	91
50	92
50	93
50	95
50	96
50	97
50	98
50	99
50	100
50	101
50	102
50	103
50	104
50	105
50	106
50	107
50	109
50	110
50	111
50	112
50	113
50	115
50	116
50	119
51	53
51	54
51	56
51	57
51	58
51	59
51	61
51	66
51	68
51	69
51	71
51	73
51	74
51	75
51	76
51	77
51	78
51	79
51	80
51	81
51	82
51	83
51	84
51	85
51	86
51	87
51	88
51	89
51	90
51	91
51	93
51	94
51	95
51	96
51	97
51	98
51	99
51	102
51	104
51	105
51	106
51	109
51	110
51	111
51	113
51	114
51	115
51	116
51	117
51	118
51	119
52	53
52	54
52	56
52	57
52	58
52	59
52	61
52	62
52	64
52	65
52	66
52	67
52	68
52	69
52	70
52	71
52	73
52	74
52	75
52	79
52	80
52	82
52	83
52	84
52	85
52	86
52	87
52	88
52	89
52	90
52	91
52	93
52	94
52	96
52	99
52	101
52	102
52	104
52	105
52	107
52	108
52	109
52	110
52	113
52	114
52	115
52	116
52	117
52	119
53	54
53	55
53	56
53	57
53	59
53	62
53	63
53	64
53	65
53	67
53	68
53	69
53	70
53	71
53	72
53	73
53	75
53	76
53	77
53	78
53	80
53	81
53	83
53	84
53	85
53	86
53	87
53	91
53	92
53	93
53	94
53	96
53	97
53	98
53	99
53	100
53	101
53	102
53	103
53	104
53	105
53	106
53	107
53	108
53	109
53	111
53	112
53	113
53	115
53	116
53	117
53	119
54	55
54	56
54	57
54	58
54	59
54	60
54	61
54	62
54	63
54	64
54	65
54	66
54	67
54	68
54	69
54	70
54	72
54	75
54	76
54	77
54	78
54	79
54	82
54	83
54	85
54	86
54	88
54	89
54	90
54	92
54	94
54	95
54	96
54	97
54	98
54	99
54	100
54	101
54	102
54	103
54	104
54	106
54	108
54	109
54	110
54	114
54	116
54	117
54	118
54	119
55	56
55	57
55	58
55	62
55	64
55	65
55	66
55	68
55	69
55	70
55	71
55	73
55	74
55	75
55	76
55	77
55	78
55	79
55	80
55	81
55	83
55	84
55	85
55	87
55	88
55	89
55	90
55	91
55	93
55	94
55	95
55	97
55	98
55	101
55	102
55	103
55	104
55	106
55	107
55	108
55	109
55	110
55	111
55	113
55	114
55	115
55	116
55	117
55	118
56	58
56	60
56	61
56	62
56	64
56	65
56	67
56	68
56	69
56	70
56	72
56	73
56	74
56	75
56	76
56	77
56	79
56	80
56	81
56	82
56	84
56	85
56	87
56	88
56	89
56	90
56	91
56	92
56	95
56	96
56	97
56	99
56	102
56	103
56	105
56	106
56	107
56	108
56	109
56	111
56	112
56	113
56	114
56	115
56	117
56	118
56	119
57	58
57	59
57	60
57	61
57	62
57	64
57	65
57	67
57	68
57	69
57	70
57	73
57	74
57	75
57	76
57	77
57	78
57	79
57	80
57	81
57	82
57	84
57	87
57	88
57	89
57	90
57	91
57	92
57	95
57	96
57	97
57	99
57	100
57	102
57	103
57	104
57	105
57	106
57	107
57	109
57	110
57	111
57	112
57	113
57	114
57	115
57	118
57	119
58	59
58	60
58	62
58	63
58	65
58	66
58	67
58	70
58	71
58	72
58	73
58	75
58	76
58	77
58	78
58	80
58	81
58	82
58	83
58	84
58	85
58	86
58	89
58	91
58	92
58	93
58	94
58	96
58	97
58	98
58	99
58	100
58	101
58	102
58	103
58	104
58	105
58	107
58	108
58	109
58	111
58	112
58	113
58	114
58	117
58	118
58	119
59	60
59	62
59	63
59	64
59	65
59	66
59	68
59	69
59	70
59	71
59	72
59	73
59	74
59	75
59	76
59	77
59	79
59	80
59	81
59	83
59	84
59	85
59	87
59	88
59	89
59	90
59	91
59	92
59	93
59	95
59	97
59	98
59	101
59	102
59	103
59	106
59	107
59	108
59	109
59	111
59	112
59	113
59	114
59	115
59	116
59	117
59	118
60	61
60	62
60	64
60	65
60	67
60	68
60	69
60	70
60	71
60	73
60	74
60	75
60	76
60	77
60	78
60	79
60	80
60	81
60	83
60	84
60	85
60	86
60	87
60	88
60	90
60	91
60	93
60	94
60	95
60	96
60	97
60	98
60	99
60	101
60	102
60	103
60	104
60	105
60	106
60	107
60	108
60	109
60	110
60	111
60	113
60	115
60	116
60	117
60	119
61	62
61	63
61	64
61	65
61	66
61	68
61	69
61	70
61	71
61	72
61	73
61	75
61	76
61	77
61	78
61	80
61	81
61	83
61	84
61	85
61	87
61	89
61	91
61	92
61	93
61	94
61	97
61	98
61	100
61	101
61	102
61	103
61	104
61	106
61	107
61	108
61	109
61	111
61	112
61	113
61	114
61	115
61	116
61	117
61	118
62	63
62	66
62	68
62	71
62	72
62	73
62	74
62	75
62	77
62	78
62	79
62	80
62	81
62	82
62	83
62	84
62	86
62	87
62	88
62	91
62	92
62	93
62	94
62	95
62	97
62	98
62	99
62	100
62	102
62	105
62	106
62	110
62	111
62	112
62	113
62	114
62	115
62	116
62	117
62	118
62	119
63	64
63	65
63	67
63	68
63	69
63	70
63	73
63	74
63	75
63	76
63	77
63	78
63	79
63	80
63	81
63	82
63	84
63	85
63	87
63	88
63	89
63	90
63	91
63	94
63	95
63	96
63	97
63	99
63	102
63	103
63	104
63	105
63	106
63	107
63	108
63	109
63	110
63	111
63	113
63	114
63	115
63	117
63	118
63	119
64	66
64	71
64	72
64	73
64	74
64	75
64	76
64	77
64	78
64	79
64	80
64	81
64	82
64	83
64	84
64	85
64	86
64	88
64	89
64	90
64	91
64	92
64	93
64	94
64	95
64	96
64	97
64	98
64	99
64	100
64	102
64	104
64	105
64	109
64	110
64	111
64	112
64	113
64	114
64	117
64	118
64	119
65	66
65	68
65	69
65	71
65	72
65	74
65	75
65	76
65	77
65	78
65	79
65	81
65	82
65	83
65	84
65	85
65	86
65	87
65	89
65	90
65	91
65	93
65	94
65	95
65	96
65	97
65	98
65	99
65	100
65	104
65	105
65	106
65	109
65	110
65	111
65	112
65	113
65	115
65	116
65	117
65	118
65	119
66	67
66	68
66	69
66	70
66	72
66	73
66	74
66	75
66	76
66	77
66	78
66	79
66	80
66	81
66	84
66	85
66	87
66	88
66	90
66	91
66	92
66	94
66	95
66	96
66	97
66	99
66	100
66	102
66	103
66	104
66	105
66	106
66	107
66	108
66	109
66	110
66	111
66	112
66	113
66	115
66	117
66	119
67	68
67	69
67	71
67	72
67	73
67	74
67	75
67	76
67	77
67	78
67	79
67	80
67	81
67	83
67	84
67	85
67	87
67	88
67	89
67	90
67	91
67	92
67	93
67	94
67	95
67	97
67	98
67	100
67	102
67	104
67	106
67	109
67	110
67	111
67	112
67	113
67	114
67	115
67	116
67	117
67	118
68	71
68	72
68	73
68	74
68	76
68	77
68	78
68	79
68	80
68	81
68	82
68	83
68	84
68	85
68	86
68	88
68	89
68	90
68	92
68	93
68	94
68	95
68	96
68	98
68	100
68	101
68	102
68	103
68	104
68	105
68	107
68	108
68	109
68	110
68	111
68	112
68	114
68	117
68	118
68	119
69	70
69	71
69	72
69	73
69	74
69	75
69	77
69	78
69	79
69	80
69	81
69	82
69	83
69	84
69	86
69	88
69	91
69	92
69	93
69	94
69	95
69	97
69	98
69	99
69	100
69	101
69	102
69	103
69	105
69	107
69	108
69	110
69	111
69	112
69	113
69	114
69	117
69	118
69	119
70	71
70	72
70	73
70	74
70	76
70	77
70	78
70	79
70	80
70	81
70	82
70	83
70	84
70	85
70	86
70	87
70	88
70	89
70	90
70	92
70	93
70	94
70	95
70	96
70	98
70	100
70	102
70	104
70	105
70	106
70	109
70	110
70	111
70	112
70	114
70	115
70	116
70	117
70	118
70	119
71	72
71	74
71	75
71	76
71	77
71	78
71	79
71	80
71	82
71	85
71	87
71	88
71	89
71	90
71	91
71	92
71	94
71	95
71	96
71	97
71	99
71	100
71	102
71	103
71	104
71	105
71	106
71	108
71	109
71	110
71	111
71	112
71	114
71	117
71	118
71	119
72	73
72	74
72	75
72	76
72	77
72	78
72	79
72	80
72	81
72	82
72	83
72	84
72	86
72	87
72	88
72	89
72	90
72	91
72	93
72	95
72	96
72	97
72	98
72	99
72	101
72	102
72	103
72	104
72	105
72	106
72	107
72	109
72	110
72	111
72	113
72	114
72	115
72	116
72	118
72	119
73	74
73	75
73	76
73	77
73	78
73	79
73	82
73	83
73	85
73	86
73	87
73	89
73	90
73	91
73	93
73	94
73	95
73	96
73	97
73	98
73	99
73	100
73	101
73	103
73	104
73	105
73	106
73	108
73	109
73	110
73	111
73	112
73	116
73	117
73	118
73	119
74	75
74	76
74	77
74	78
74	81
74	82
74	83
74	84
74	85
74	86
74	89
74	92
74	94
74	96
74	97
74	98
74	99
74	100
74	101
74	102
74	103
74	104
74	106
74	107
74	108
74	109
74	113
74	114
74	115
74	116
74	117
74	118
74	119
75	76
75	78
75	80
75	81
75	82
75	85
75	86
75	87
75	88
75	89
75	90
75	92
75	93
75	94
75	95
75	96
75	98
75	100
75	101
75	103
75	104
75	105
75	106
75	107
75	108
75	110
75	111
75	112
75	114
75	115
75	116
75	118
76	79
76	80
76	82
76	83
76	84
76	86
76	87
76	88
76	91
76	92
76	93
76	94
76	99
76	100
76	101
76	102
76	105
76	107
76	108
76	110
76	112
76	113
76	114
76	115
76	116
76	117
76	119
77	80
77	82
77	85
77	86
77	87
77	88
77	89
77	90
77	91
77	92
77	93
77	94
77	96
77	99
77	100
77	101
77	104
77	105
77	107
77	108
77	110
77	112
77	113
77	114
77	115
77	116
78	79
78	80
78	82
78	83
78	84
78	85
78	86
78	87
78	88
78	89
78	90
78	91
78	92
78	93
78	96
78	99
78	101
78	102
78	105
78	107
78	108
78	109
78	112
78	113
78	114
78	115
78	116
78	117
78	119
79	80
79	81
79	82
79	85
79	86
79	87
79	89
79	91
79	92
79	93
79	94
79	96
79	97
79	98
79	99
79	100
79	101
79	103
79	104
79	105
79	106
79	107
79	108
79	111
79	112
79	113
79	114
79	115
79	116
79	118
80	81
80	82
80	83
80	84
80	85
80	86
80	89
80	90
80	94
80	95
80	96
80	97
80	98
80	99
80	100
80	101
80	103
80	104
80	106
80	107
80	108
80	109
80	110
80	113
80	115
80	116
80	117
80	118
80	119
81	82
81	83
81	85
81	86
81	87
81	88
81	89
81	90
81	91
81	92
81	93
81	94
81	96
81	99
81	100
81	101
81	102
81	104
81	105
81	108
81	109
81	110
81	112
81	114
81	116
81	117
81	119
82	83
82	84
82	85
82	87
82	88
82	90
82	91
82	92
82	93
82	94
82	95
82	97
82	98
82	100
82	101
82	102
82	103
82	104
82	106
82	107
82	108
82	109
82	110
82	111
82	112
82	113
82	115
82	116
82	117
83	85
83	87
83	88
83	89
83	90
83	91
83	92
83	94
83	95
83	96
83	97
83	99
83	100
83	103
83	104
83	105
83	106
83	107
83	108
83	110
83	111
83	112
83	113
83	114
83	115
83	118
84	85
84	86
84	87
84	88
84	89
84	90
84	91
84	92
84	93
84	94
84	95
84	96
84	97
84	98
84	99
84	100
84	101
84	103
84	104
84	105
84	106
84	108
84	110
84	111
84	112
84	114
84	116
84	118
85	86
85	87
85	88
85	91
85	92
85	93
85	95
85	97
85	98
85	99
85	100
85	101
85	102
85	103
85	105
85	106
85	107
85	110
85	111
85	112
85	113
85	114
85	115
85	116
85	118
85	119
86	87
86	88
86	89
86	90
86	91
86	92
86	94
86	95
86	97
86	100
86	102
86	103
86	104
86	106
86	107
86	108
86	109
86	110
86	111
86	112
86	113
86	114
86	115
86	117
86	118
87	88
87	89
87	90
87	92
87	94
87	95
87	96
87	97
87	98
87	99
87	100
87	101
87	102
87	103
87	104
87	107
87	108
87	109
87	110
87	113
87	114
87	117
87	118
87	119
88	89
88	91
88	93
88	94
88	96
88	97
88	98
88	99
88	100
88	101
88	103
88	104
88	105
88	106
88	107
88	108
88	109
88	111
88	112
88	113
88	115
88	116
88	117
88	118
88	119
89	91
89	92
89	93
89	94
89	95
89	97
89	98
89	99
89	100
89	101
89	102
89	103
89	105
89	106
89	107
89	108
89	110
89	111
89	112
89	113
89	115
89	116
89	117
89	119
90	91
90	92
90	93
90	94
90	97
90	98
90	99
90	100
90	101
90	102
90	103
90	105
90	106
90	107
90	108
90	111
90	112
90	113
90	114
90	115
90	116
90	117
90	118
90	119
91	92
91	94
91	95
91	96
91	98
91	100
91	101
91	102
91	103
91	104
91	106
91	107
91	108
91	109
91	110
91	114
91	115
91	116
91	117
91	118
91	119
92	93
92	94
92	95
92	96
92	97
92	98
92	99
92	101
92	103
92	104
92	105
92	106
92	107
92	108
92	109
92	110
92	111
92	113
92	115
92	116
92	117
92	118
92	119
93	94
93	95
93	96
93	97
93	99
93	100
93	102
93	103
93	104
93	106
93	107
93	108
93	109
93	110
93	113
93	114
93	115
93	117
93	118
93	119
94	95
94	96
94	97
94	98
94	99
94	101
94	102
94	103
94	105
94	106
94	107
94	109
94	111
94	112
94	113
94	114
94	115
94	116
94	118
94	119
95	96
95	99
95	100
95	101
95	102
95	104
95	105
95	107
95	108
95	109
95	112
95	113
95	114
95	115
95	116
95	117
95	119
96	97
96	98
96	100
96	101
96	102
96	103
96	106
96	107
96	108
96	110
96	111
96	112
96	113
96	114
96	115
96	116
96	117
96	118
97	100
97	101
97	102
97	104
97	105
97	107
97	108
97	109
97	110
97	112
97	114
97	115
97	116
97	117
97	119
98	99
98	100
98	102
98	104
98	105
98	107
98	108
98	109
98	110
98	112
98	113
98	114
98	115
98	117
98	119
99	100
99	101
99	102
99	103
99	104
99	106
99	107
99	108
99	109
99	110
99	111
99	112
99	114
99	115
99	116
99	117
99	118
100	101
100	102
100	103
100	105
100	106
100	107
100	108
100	109
100	111
100	113
100	114
100	115
100	116
100	117
100	118
100	119
101	102
101	104
101	105
101	106
101	109
101	110
101	111
101	112
101	113
101	114
101	115
101	117
101	118
101	119
102	103
102	104
102	105
102	106
102	107
102	108
102	110
102	111
102	112
102	113
102	115
102	116
102	118
103	104
103	105
103	109
103	110
103	112
103	113
103	114
103	115
103	116
103	117
103	119
104	105
104	106
104	107
104	108
104	111
104	112
104	113
104	114
104	115
104	116
104	117
104	118
104	119
105	106
105	107
105	108
105	109
105	110
105	113
105	114
105	115
105	116
105	117
105	118
106	107
106	108
106	109
106	110
106	112
106	113
106	114
106	117
106	119
107	109
107	110
107	111
107	112
107	114
107	116
107	117
107	118
107	119
108	109
108	110
108	111
108	112
108	113
108	114
108	115
108	116
108	118
108	119
109	110
109	111
109	112
109	113
109	114
109	115
109	116
109	118
110	111
110	112
110	113
110	114
110	115
110	116
110	117
110	118
110	119
111	113
111	114
111	115
111	116
111	117
111	119
112	113
112	114
112	115
112	116
112	117
112	118
112	119
113	114
113	116
113	117
113	118
113	119
114	115
114	116
114	117
114	119
115	117
115	118
115	119
116	117
116	118
116	119
117	118
118	119
